73.7489 7.98028 1.5875
5.16822 7.89454 1.5875
50.8 3.175 1.5875
50.8 12.7 1.5875
25.4 3.175 1.5875
25.4 12.7 1.5875
0.0 15.875 1.5875
76.2 15.875 1.5875
0.0 0.0 1.5875
76.2 0.0 1.5875
5.16822 7.89454 0.0
73.7489 7.98028 0.0
50.8 3.175 0.0
50.8 12.7 0.0
25.4 12.7 0.0
25.4 3.175 0.0
0.0 15.875 0.0
76.2 15.875 0.0
76.2 0.0 0.0
0.0 0.0 0.0
73.5332 8.71495 1.5875
72.9545 9.21638 1.5875
72.1966 9.32534 1.5875
71.5001 9.00726 1.5875
71.0861 8.36312 1.5875
71.0861 7.59743 1.5875
71.5001 6.95329 1.5875
72.1966 6.63521 1.5875
72.9545 6.74418 1.5875
73.5332 7.2456 1.5875
4.97584 8.63567 1.5875
4.41331 9.15513 1.5875
3.65923 9.28801 1.5875
2.95303 8.99211 1.5875
2.5189 8.36138 1.5875
2.49469 7.59607 1.5875
2.88808 6.93916 1.5875
3.57418 6.59922 1.5875
4.33514 6.68417 1.5875
4.92938 7.16705 1.5875
51.545 3.23363 1.5875
52.2717 3.40809 1.5875
52.9621 3.69408 1.5875
53.5993 4.08456 1.5875
54.1676 4.5699 1.5875
54.6529 5.13817 1.5875
55.0434 5.77537 1.5875
55.3294 6.46581 1.5875
55.5039 7.19248 1.5875
55.5625 7.9375 1.5875
55.5039 8.68252 1.5875
55.3294 9.40919 1.5875
55.0434 10.0996 1.5875
54.6529 10.7368 1.5875
54.1676 11.3051 1.5875
53.5993 11.7904 1.5875
52.9621 12.1809 1.5875
52.2717 12.4669 1.5875
51.545 12.6414 1.5875
50.0303 3.175 1.5875
49.2606 3.175 1.5875
48.4909 3.175 1.5875
47.7212 3.175 1.5875
46.9515 3.175 1.5875
46.1818 3.175 1.5875
45.4121 3.175 1.5875
44.6424 3.175 1.5875
43.8727 3.175 1.5875
43.103 3.175 1.5875
42.3333 3.175 1.5875
41.5636 3.175 1.5875
40.7939 3.175 1.5875
40.0242 3.175 1.5875
39.2545 3.175 1.5875
38.4848 3.175 1.5875
37.7152 3.175 1.5875
36.9455 3.175 1.5875
36.1758 3.175 1.5875
35.4061 3.175 1.5875
34.6364 3.175 1.5875
33.8667 3.175 1.5875
33.097 3.175 1.5875
32.3273 3.175 1.5875
31.5576 3.175 1.5875
30.7879 3.175 1.5875
30.0182 3.175 1.5875
29.2485 3.175 1.5875
28.4788 3.175 1.5875
27.7091 3.175 1.5875
26.9394 3.175 1.5875
26.1697 3.175 1.5875
24.655 12.6414 1.5875
23.9283 12.4669 1.5875
23.2379 12.1809 1.5875
22.6007 11.7904 1.5875
22.0324 11.3051 1.5875
21.5471 10.7368 1.5875
21.1566 10.0996 1.5875
20.8706 9.40919 1.5875
20.6961 8.68252 1.5875
20.6375 7.9375 1.5875
20.6961 7.19248 1.5875
20.8706 6.46581 1.5875
21.1566 5.77537 1.5875
21.5471 5.13817 1.5875
22.0324 4.5699 1.5875
22.6007 4.08456 1.5875
23.2379 3.69408 1.5875
23.9283 3.40809 1.5875
24.655 3.23363 1.5875
26.1697 12.7 1.5875
26.9394 12.7 1.5875
27.7091 12.7 1.5875
28.4788 12.7 1.5875
29.2485 12.7 1.5875
30.0182 12.7 1.5875
30.7879 12.7 1.5875
31.5576 12.7 1.5875
32.3273 12.7 1.5875
33.097 12.7 1.5875
33.8667 12.7 1.5875
34.6364 12.7 1.5875
35.4061 12.7 1.5875
36.1758 12.7 1.5875
36.9455 12.7 1.5875
37.7152 12.7 1.5875
38.4848 12.7 1.5875
39.2545 12.7 1.5875
40.0242 12.7 1.5875
40.7939 12.7 1.5875
41.5636 12.7 1.5875
42.3333 12.7 1.5875
43.103 12.7 1.5875
43.8727 12.7 1.5875
44.6424 12.7 1.5875
45.4121 12.7 1.5875
46.1818 12.7 1.5875
46.9515 12.7 1.5875
47.7212 12.7 1.5875
48.4909 12.7 1.5875
49.2606 12.7 1.5875
50.0303 12.7 1.5875
0.777551 15.875 1.5875
1.5551 15.875 1.5875
2.33265 15.875 1.5875
3.1102 15.875 1.5875
3.88775 15.875 1.5875
4.66531 15.875 1.5875
5.44286 15.875 1.5875
6.22041 15.875 1.5875
6.99796 15.875 1.5875
7.77551 15.875 1.5875
8.55306 15.875 1.5875
9.33061 15.875 1.5875
10.1082 15.875 1.5875
10.8857 15.875 1.5875
11.6633 15.875 1.5875
12.4408 15.875 1.5875
13.2184 15.875 1.5875
13.9959 15.875 1.5875
14.7735 15.875 1.5875
15.551 15.875 1.5875
16.3286 15.875 1.5875
17.1061 15.875 1.5875
17.8837 15.875 1.5875
18.6612 15.875 1.5875
19.4388 15.875 1.5875
20.2163 15.875 1.5875
20.9939 15.875 1.5875
21.7714 15.875 1.5875
22.549 15.875 1.5875
23.3265 15.875 1.5875
24.1041 15.875 1.5875
24.8816 15.875 1.5875
25.6592 15.875 1.5875
26.4367 15.875 1.5875
27.2143 15.875 1.5875
27.9918 15.875 1.5875
28.7694 15.875 1.5875
29.5469 15.875 1.5875
30.3245 15.875 1.5875
31.102 15.875 1.5875
31.8796 15.875 1.5875
32.6571 15.875 1.5875
33.4347 15.875 1.5875
34.2122 15.875 1.5875
34.9898 15.875 1.5875
35.7673 15.875 1.5875
36.5449 15.875 1.5875
37.3224 15.875 1.5875
38.1 15.875 1.5875
38.8776 15.875 1.5875
39.6551 15.875 1.5875
40.4327 15.875 1.5875
41.2102 15.875 1.5875
41.9878 15.875 1.5875
42.7653 15.875 1.5875
43.5429 15.875 1.5875
44.3204 15.875 1.5875
45.098 15.875 1.5875
45.8755 15.875 1.5875
46.6531 15.875 1.5875
47.4306 15.875 1.5875
48.2082 15.875 1.5875
48.9857 15.875 1.5875
49.7633 15.875 1.5875
50.5408 15.875 1.5875
51.3184 15.875 1.5875
52.0959 15.875 1.5875
52.8735 15.875 1.5875
53.651 15.875 1.5875
54.4286 15.875 1.5875
55.2061 15.875 1.5875
55.9837 15.875 1.5875
56.7612 15.875 1.5875
57.5388 15.875 1.5875
58.3163 15.875 1.5875
59.0939 15.875 1.5875
59.8714 15.875 1.5875
60.649 15.875 1.5875
61.4265 15.875 1.5875
62.2041 15.875 1.5875
62.9816 15.875 1.5875
63.7592 15.875 1.5875
64.5367 15.875 1.5875
65.3143 15.875 1.5875
66.0918 15.875 1.5875
66.8694 15.875 1.5875
67.6469 15.875 1.5875
68.4245 15.875 1.5875
69.202 15.875 1.5875
69.9796 15.875 1.5875
70.7571 15.875 1.5875
71.5347 15.875 1.5875
72.3122 15.875 1.5875
73.0898 15.875 1.5875
73.8673 15.875 1.5875
74.6449 15.875 1.5875
75.4224 15.875 1.5875
0.0 0.755952 1.5875
0.0 1.5119 1.5875
0.0 2.26786 1.5875
0.0 3.02381 1.5875
0.0 3.77976 1.5875
0.0 4.53571 1.5875
0.0 5.29167 1.5875
0.0 6.04762 1.5875
0.0 6.80357 1.5875
0.0 7.55952 1.5875
0.0 8.31548 1.5875
0.0 9.07143 1.5875
0.0 9.82738 1.5875
0.0 10.5833 1.5875
0.0 11.3393 1.5875
0.0 12.0952 1.5875
0.0 12.8512 1.5875
0.0 13.6071 1.5875
0.0 14.3631 1.5875
0.0 15.119 1.5875
0.777551 0.0 1.5875
1.5551 0.0 1.5875
2.33265 0.0 1.5875
3.1102 0.0 1.5875
3.88775 0.0 1.5875
4.66531 0.0 1.5875
5.44286 0.0 1.5875
6.22041 0.0 1.5875
6.99796 0.0 1.5875
7.77551 0.0 1.5875
8.55306 0.0 1.5875
9.33061 0.0 1.5875
10.1082 0.0 1.5875
10.8857 0.0 1.5875
11.6633 0.0 1.5875
12.4408 0.0 1.5875
13.2184 0.0 1.5875
13.9959 0.0 1.5875
14.7735 0.0 1.5875
15.551 0.0 1.5875
16.3286 0.0 1.5875
17.1061 0.0 1.5875
17.8837 0.0 1.5875
18.6612 0.0 1.5875
19.4388 0.0 1.5875
20.2163 0.0 1.5875
20.9939 0.0 1.5875
21.7714 0.0 1.5875
22.549 0.0 1.5875
23.3265 0.0 1.5875
24.1041 0.0 1.5875
24.8816 0.0 1.5875
25.6592 0.0 1.5875
26.4367 0.0 1.5875
27.2143 0.0 1.5875
27.9918 0.0 1.5875
28.7694 0.0 1.5875
29.5469 0.0 1.5875
30.3245 0.0 1.5875
31.102 0.0 1.5875
31.8796 0.0 1.5875
32.6571 0.0 1.5875
33.4347 0.0 1.5875
34.2122 0.0 1.5875
34.9898 0.0 1.5875
35.7673 0.0 1.5875
36.5449 0.0 1.5875
37.3224 0.0 1.5875
38.1 0.0 1.5875
38.8776 0.0 1.5875
39.6551 0.0 1.5875
40.4327 0.0 1.5875
41.2102 0.0 1.5875
41.9878 0.0 1.5875
42.7653 0.0 1.5875
43.5429 0.0 1.5875
44.3204 0.0 1.5875
45.098 0.0 1.5875
45.8755 0.0 1.5875
46.6531 0.0 1.5875
47.4306 0.0 1.5875
48.2082 0.0 1.5875
48.9857 0.0 1.5875
49.7633 0.0 1.5875
50.5408 0.0 1.5875
51.3184 0.0 1.5875
52.0959 0.0 1.5875
52.8735 0.0 1.5875
53.651 0.0 1.5875
54.4286 0.0 1.5875
55.2061 0.0 1.5875
55.9837 0.0 1.5875
56.7612 0.0 1.5875
57.5388 0.0 1.5875
58.3163 0.0 1.5875
59.0939 0.0 1.5875
59.8714 0.0 1.5875
60.649 0.0 1.5875
61.4265 0.0 1.5875
62.2041 0.0 1.5875
62.9816 0.0 1.5875
63.7592 0.0 1.5875
64.5367 0.0 1.5875
65.3143 0.0 1.5875
66.0918 0.0 1.5875
66.8694 0.0 1.5875
67.6469 0.0 1.5875
68.4245 0.0 1.5875
69.202 0.0 1.5875
69.9796 0.0 1.5875
70.7571 0.0 1.5875
71.5347 0.0 1.5875
72.3122 0.0 1.5875
73.0898 0.0 1.5875
73.8673 0.0 1.5875
74.6449 0.0 1.5875
75.4224 0.0 1.5875
76.2 0.755952 1.5875
76.2 1.5119 1.5875
76.2 2.26786 1.5875
76.2 3.02381 1.5875
76.2 3.77976 1.5875
76.2 4.53571 1.5875
76.2 5.29167 1.5875
76.2 6.04762 1.5875
76.2 6.80357 1.5875
76.2 7.55952 1.5875
76.2 8.31548 1.5875
76.2 9.07143 1.5875
76.2 9.82738 1.5875
76.2 10.5833 1.5875
76.2 11.3393 1.5875
76.2 12.0952 1.5875
76.2 12.8512 1.5875
76.2 13.6071 1.5875
76.2 14.3631 1.5875
76.2 15.119 1.5875
5.16822 7.89454 0.529167
5.16822 7.89454 1.05833
4.97584 8.63567 0.0
4.41331 9.15513 0.0
3.65923 9.28801 0.0
2.95303 8.99211 0.0
2.5189 8.36138 0.0
2.49469 7.59607 0.0
2.88808 6.93916 0.0
3.57418 6.59922 0.0
4.33514 6.68417 0.0
4.92938 7.16705 0.0
73.5332 8.71495 0.0
72.9545 9.21638 0.0
72.1966 9.32534 0.0
71.5001 9.00726 0.0
71.0861 8.36312 0.0
71.0861 7.59743 0.0
71.5001 6.95329 0.0
72.1966 6.63521 0.0
72.9545 6.74418 0.0
73.5332 7.2456 0.0
51.545 3.23363 0.0
52.2717 3.40809 0.0
52.9621 3.69408 0.0
53.5993 4.08456 0.0
54.1676 4.5699 0.0
54.6529 5.13817 0.0
55.0434 5.77537 0.0
55.3294 6.46581 0.0
55.5039 7.19248 0.0
55.5625 7.9375 0.0
55.5039 8.68252 0.0
55.3294 9.40919 0.0
55.0434 10.0996 0.0
54.6529 10.7368 0.0
54.1676 11.3051 0.0
53.5993 11.7904 0.0
52.9621 12.1809 0.0
52.2717 12.4669 0.0
51.545 12.6414 0.0
26.1697 12.7 0.0
26.9394 12.7 0.0
27.7091 12.7 0.0
28.4788 12.7 0.0
29.2485 12.7 0.0
30.0182 12.7 0.0
30.7879 12.7 0.0
31.5576 12.7 0.0
32.3273 12.7 0.0
33.097 12.7 0.0
33.8667 12.7 0.0
34.6364 12.7 0.0
35.4061 12.7 0.0
36.1758 12.7 0.0
36.9455 12.7 0.0
37.7152 12.7 0.0
38.4848 12.7 0.0
39.2545 12.7 0.0
40.0242 12.7 0.0
40.7939 12.7 0.0
41.5636 12.7 0.0
42.3333 12.7 0.0
43.103 12.7 0.0
43.8727 12.7 0.0
44.6424 12.7 0.0
45.4121 12.7 0.0
46.1818 12.7 0.0
46.9515 12.7 0.0
47.7212 12.7 0.0
48.4909 12.7 0.0
49.2606 12.7 0.0
50.0303 12.7 0.0
24.655 12.6414 0.0
23.9283 12.4669 0.0
23.2379 12.1809 0.0
22.6007 11.7904 0.0
22.0324 11.3051 0.0
21.5471 10.7368 0.0
21.1566 10.0996 0.0
20.8706 9.40919 0.0
20.6961 8.68252 0.0
20.6375 7.9375 0.0
20.6961 7.19248 0.0
20.8706 6.46581 0.0
21.1566 5.77537 0.0
21.5471 5.13817 0.0
22.0324 4.5699 0.0
22.6007 4.08456 0.0
23.2379 3.69408 0.0
23.9283 3.40809 0.0
24.655 3.23363 0.0
50.0303 3.175 0.0
49.2606 3.175 0.0
48.4909 3.175 0.0
47.7212 3.175 0.0
46.9515 3.175 0.0
46.1818 3.175 0.0
45.4121 3.175 0.0
44.6424 3.175 0.0
43.8727 3.175 0.0
43.103 3.175 0.0
42.3333 3.175 0.0
41.5636 3.175 0.0
40.7939 3.175 0.0
40.0242 3.175 0.0
39.2545 3.175 0.0
38.4848 3.175 0.0
37.7152 3.175 0.0
36.9455 3.175 0.0
36.1758 3.175 0.0
35.4061 3.175 0.0
34.6364 3.175 0.0
33.8667 3.175 0.0
33.097 3.175 0.0
32.3273 3.175 0.0
31.5576 3.175 0.0
30.7879 3.175 0.0
30.0182 3.175 0.0
29.2485 3.175 0.0
28.4788 3.175 0.0
27.7091 3.175 0.0
26.9394 3.175 0.0
26.1697 3.175 0.0
0.777551 15.875 0.0
1.5551 15.875 0.0
2.33265 15.875 0.0
3.1102 15.875 0.0
3.88775 15.875 0.0
4.66531 15.875 0.0
5.44286 15.875 0.0
6.22041 15.875 0.0
6.99796 15.875 0.0
7.77551 15.875 0.0
8.55306 15.875 0.0
9.33061 15.875 0.0
10.1082 15.875 0.0
10.8857 15.875 0.0
11.6633 15.875 0.0
12.4408 15.875 0.0
13.2184 15.875 0.0
13.9959 15.875 0.0
14.7735 15.875 0.0
15.551 15.875 0.0
16.3286 15.875 0.0
17.1061 15.875 0.0
17.8837 15.875 0.0
18.6612 15.875 0.0
19.4388 15.875 0.0
20.2163 15.875 0.0
20.9939 15.875 0.0
21.7714 15.875 0.0
22.549 15.875 0.0
23.3265 15.875 0.0
24.1041 15.875 0.0
24.8816 15.875 0.0
25.6592 15.875 0.0
26.4367 15.875 0.0
27.2143 15.875 0.0
27.9918 15.875 0.0
28.7694 15.875 0.0
29.5469 15.875 0.0
30.3245 15.875 0.0
31.102 15.875 0.0
31.8796 15.875 0.0
32.6571 15.875 0.0
33.4347 15.875 0.0
34.2122 15.875 0.0
34.9898 15.875 0.0
35.7673 15.875 0.0
36.5449 15.875 0.0
37.3224 15.875 0.0
38.1 15.875 0.0
38.8776 15.875 0.0
39.6551 15.875 0.0
40.4327 15.875 0.0
41.2102 15.875 0.0
41.9878 15.875 0.0
42.7653 15.875 0.0
43.5429 15.875 0.0
44.3204 15.875 0.0
45.098 15.875 0.0
45.8755 15.875 0.0
46.6531 15.875 0.0
47.4306 15.875 0.0
48.2082 15.875 0.0
48.9857 15.875 0.0
49.7633 15.875 0.0
50.5408 15.875 0.0
51.3184 15.875 0.0
52.0959 15.875 0.0
52.8735 15.875 0.0
53.651 15.875 0.0
54.4286 15.875 0.0
55.2061 15.875 0.0
55.9837 15.875 0.0
56.7612 15.875 0.0
57.5388 15.875 0.0
58.3163 15.875 0.0
59.0939 15.875 0.0
59.8714 15.875 0.0
60.649 15.875 0.0
61.4265 15.875 0.0
62.2041 15.875 0.0
62.9816 15.875 0.0
63.7592 15.875 0.0
64.5367 15.875 0.0
65.3143 15.875 0.0
66.0918 15.875 0.0
66.8694 15.875 0.0
67.6469 15.875 0.0
68.4245 15.875 0.0
69.202 15.875 0.0
69.9796 15.875 0.0
70.7571 15.875 0.0
71.5347 15.875 0.0
72.3122 15.875 0.0
73.0898 15.875 0.0
73.8673 15.875 0.0
74.6449 15.875 0.0
75.4224 15.875 0.0
76.2 0.755952 0.0
76.2 1.5119 0.0
76.2 2.26786 0.0
76.2 3.02381 0.0
76.2 3.77976 0.0
76.2 4.53571 0.0
76.2 5.29167 0.0
76.2 6.04762 0.0
76.2 6.80357 0.0
76.2 7.55952 0.0
76.2 8.31548 0.0
76.2 9.07143 0.0
76.2 9.82738 0.0
76.2 10.5833 0.0
76.2 11.3393 0.0
76.2 12.0952 0.0
76.2 12.8512 0.0
76.2 13.6071 0.0
76.2 14.3631 0.0
76.2 15.119 0.0
0.777551 0.0 0.0
1.5551 0.0 0.0
2.33265 0.0 0.0
3.1102 0.0 0.0
3.88775 0.0 0.0
4.66531 0.0 0.0
5.44286 0.0 0.0
6.22041 0.0 0.0
6.99796 0.0 0.0
7.77551 0.0 0.0
8.55306 0.0 0.0
9.33061 0.0 0.0
10.1082 0.0 0.0
10.8857 0.0 0.0
11.6633 0.0 0.0
12.4408 0.0 0.0
13.2184 0.0 0.0
13.9959 0.0 0.0
14.7735 0.0 0.0
15.551 0.0 0.0
16.3286 0.0 0.0
17.1061 0.0 0.0
17.8837 0.0 0.0
18.6612 0.0 0.0
19.4388 0.0 0.0
20.2163 0.0 0.0
20.9939 0.0 0.0
21.7714 0.0 0.0
22.549 0.0 0.0
23.3265 0.0 0.0
24.1041 0.0 0.0
24.8816 0.0 0.0
25.6592 0.0 0.0
26.4367 0.0 0.0
27.2143 0.0 0.0
27.9918 0.0 0.0
28.7694 0.0 0.0
29.5469 0.0 0.0
30.3245 0.0 0.0
31.102 0.0 0.0
31.8796 0.0 0.0
32.6571 0.0 0.0
33.4347 0.0 0.0
34.2122 0.0 0.0
34.9898 0.0 0.0
35.7673 0.0 0.0
36.5449 0.0 0.0
37.3224 0.0 0.0
38.1 0.0 0.0
38.8776 0.0 0.0
39.6551 0.0 0.0
40.4327 0.0 0.0
41.2102 0.0 0.0
41.9878 0.0 0.0
42.7653 0.0 0.0
43.5429 0.0 0.0
44.3204 0.0 0.0
45.098 0.0 0.0
45.8755 0.0 0.0
46.6531 0.0 0.0
47.4306 0.0 0.0
48.2082 0.0 0.0
48.9857 0.0 0.0
49.7633 0.0 0.0
50.5408 0.0 0.0
51.3184 0.0 0.0
52.0959 0.0 0.0
52.8735 0.0 0.0
53.651 0.0 0.0
54.4286 0.0 0.0
55.2061 0.0 0.0
55.9837 0.0 0.0
56.7612 0.0 0.0
57.5388 0.0 0.0
58.3163 0.0 0.0
59.0939 0.0 0.0
59.8714 0.0 0.0
60.649 0.0 0.0
61.4265 0.0 0.0
62.2041 0.0 0.0
62.9816 0.0 0.0
63.7592 0.0 0.0
64.5367 0.0 0.0
65.3143 0.0 0.0
66.0918 0.0 0.0
66.8694 0.0 0.0
67.6469 0.0 0.0
68.4245 0.0 0.0
69.202 0.0 0.0
69.9796 0.0 0.0
70.7571 0.0 0.0
71.5347 0.0 0.0
72.3122 0.0 0.0
73.0898 0.0 0.0
73.8673 0.0 0.0
74.6449 0.0 0.0
75.4224 0.0 0.0
0.0 0.755952 0.0
0.0 1.5119 0.0
0.0 2.26786 0.0
0.0 3.02381 0.0
0.0 3.77976 0.0
0.0 4.53571 0.0
0.0 5.29167 0.0
0.0 6.04762 0.0
0.0 6.80357 0.0
0.0 7.55952 0.0
0.0 8.31548 0.0
0.0 9.07143 0.0
0.0 9.82738 0.0
0.0 10.5833 0.0
0.0 11.3393 0.0
0.0 12.0952 0.0
0.0 12.8512 0.0
0.0 13.6071 0.0
0.0 14.3631 0.0
0.0 15.119 0.0
0.0 15.875 1.05833
0.0 15.875 0.529167
76.2 15.875 1.05833
76.2 15.875 0.529167
0.0 0.0 1.05833
0.0 0.0 0.529167
50.8 12.7 1.05833
50.8 12.7 0.529167
25.4 12.7 1.05833
25.4 12.7 0.529167
25.4 3.175 1.05833
25.4 3.175 0.529167
50.8 3.175 1.05833
50.8 3.175 0.529167
76.2 0.0 1.05833
76.2 0.0 0.529167
73.7489 7.98028 0.529167
73.7489 7.98028 1.05833
63.3762 8.00712 1.5875
12.8676 8.17352 1.5875
9.39227 4.93424 1.5875
66.9931 4.91659 1.5875
16.3308 4.79274 1.5875
67.0657 11.0457 1.5875
59.8563 4.81989 1.5875
9.11811 11.0509 1.5875
59.8272 11.091 1.5875
16.506 11.1714 1.5875
12.7962 11.9281 1.5875
63.4251 12.0996 1.5875
63.4733 3.78383 1.5875
12.7941 3.72517 1.5875
70.3473 3.55662 1.5875
5.97438 3.53856 1.5875
70.3422 12.3364 1.5875
5.83313 12.3762 1.5875
17.1935 7.94245 1.5875
58.8906 7.97758 1.5875
67.8962 7.89553 1.5875
8.38874 7.96106 1.5875
19.0432 3.24669 1.5875
57.0939 3.13812 1.5875
57.0707 12.7464 1.5875
19.1046 12.7873 1.5875
2.95015 3.37144 1.5875
73.4283 12.5096 1.5875
2.78014 12.5126 1.5875
73.2994 3.40179 1.5875
10.4934 13.2684 1.5875
65.7702 2.5768 1.5875
65.7903 13.2842 1.5875
14.9916 13.308 1.5875
10.4528 2.57882 1.5875
61.1492 2.57118 1.5875
61.1311 13.3443 1.5875
15.099 2.55745 1.5875
11.5939 6.08541 1.5875
14.0894 6.03894 1.5875
64.8058 5.9368 1.5875
65.6419 9.02131 1.5875
62.0072 5.89455 1.5875
61.0361 9.08811 1.5875
10.5804 9.09285 1.5875
15.209 9.15625 1.5875
6.96626 5.78894 1.5875
69.2753 5.92076 1.5875
8.08209 13.3958 1.5875
18.5291 5.87064 1.5875
69.3074 10.0751 1.5875
57.6559 5.86906 1.5875
57.6275 10.0289 1.5875
68.214 2.43831 1.5875
6.85418 10.1737 1.5875
68.1755 13.4501 1.5875
18.5811 10.0089 1.5875
8.06733 2.3762 1.5875
21.1883 2.28185 1.5875
54.9835 2.27076 1.5875
54.9651 13.6115 1.5875
21.2778 13.6284 1.5875
17.1385 13.6034 1.5875
59.154 13.6091 1.5875
59.1702 2.26615 1.5875
17.1317 2.23805 1.5875
62.9341 10.0503 1.5875
4.54004 2.05777 1.5875
71.7385 2.10287 1.5875
71.7742 13.8332 1.5875
4.41625 13.8476 1.5875
2.01854 5.14148 1.5875
64.9322 11.0191 1.5875
74.0884 5.30113 1.5875
2.05747 10.7002 1.5875
13.3268 10.0596 1.5875
74.2269 10.7316 1.5875
12.6449 13.925 1.5875
11.1552 11.1365 1.5875
4.56026 4.81045 1.5875
15.488 7.10818 1.5875
4.32617 11.1278 1.5875
60.7199 7.12301 1.5875
10.1942 7.14368 1.5875
71.9363 4.71087 1.5875
63.9739 1.95854 1.5875
63.9354 13.9569 1.5875
61.5927 11.3467 1.5875
1.95486 2.08366 1.5875
71.8693 11.2019 1.5875
66.1353 7.14786 1.5875
12.2283 1.95593 1.5875
74.2682 13.7887 1.5875
1.92962 13.7889 1.5875
74.2727 2.08776 1.5875
14.6715 11.4855 1.5875
22.9706 1.82615 1.5875
53.233 1.8439 1.5875
53.2217 13.9933 1.5875
23.0506 14.0691 1.5875
69.9235 1.81777 1.5875
6.51528 13.9418 1.5875
10.9977 4.22467 1.5875
69.8484 13.9823 1.5875
6.45009 1.90637 1.5875
68.7253 4.22986 1.5875
7.53745 4.18515 1.5875
68.7675 11.5843 1.5875
14.6876 4.26623 1.5875
19.7967 4.63144 1.5875
56.387 4.63325 1.5875
56.3867 11.1705 1.5875
19.8461 11.1532 1.5875
19.0345 7.51329 1.5875
65.1834 4.06873 1.5875
57.1634 7.51274 1.5875
7.42643 11.7836 1.5875
61.4177 4.25516 1.5875
6.75647 8.48282 1.5875
59.5175 9.41046 1.5875
16.7669 9.53089 1.5875
16.9142 6.30644 1.5875
17.8174 4.23151 1.5875
59.2684 6.25777 1.5875
58.2358 4.27235 1.5875
58.3196 11.5982 1.5875
18.0686 11.5668 1.5875
51.2967 1.62628 1.5875
51.2967 14.2487 1.5875
24.9033 1.62628 1.5875
24.9141 14.2733 1.5875
19.6833 1.58684 1.5875
8.45433 9.64634 1.5875
56.4861 1.61586 1.5875
56.4645 14.2661 1.5875
8.50378 6.33793 1.5875
67.2055 9.41659 1.5875
19.7852 14.2826 1.5875
69.3251 7.52282 1.5875
67.7124 6.34496 1.5875
26.4502 14.2556 1.5875
49.7498 1.61938 1.5875
26.4502 1.61938 1.5875
49.7498 14.2556 1.5875
47.3364 1.60942 1.5875
47.3364 14.2656 1.5875
28.8636 14.2656 1.5875
28.8636 1.60942 1.5875
31.1727 14.265 1.5875
45.0273 1.61004 1.5875
45.0273 14.265 1.5875
31.1727 1.61004 1.5875
33.4592 1.604 1.5875
33.4592 14.271 1.5875
42.7408 14.271 1.5875
42.7408 1.604 1.5875
40.4315 14.2708 1.5875
40.4315 1.60421 1.5875
35.7685 1.60421 1.5875
35.7685 14.2708 1.5875
38.1053 14.2218 1.5875
38.1053 1.65324 1.5875
13.8101 1.59675 1.5875
62.4046 1.58426 1.5875
62.3771 14.2012 1.5875
9.39437 14.2966 1.5875
66.9324 1.55514 1.5875
66.8972 14.3258 1.5875
1.49249 3.41622 1.5875
13.8982 14.3469 1.5875
12.066 9.3924 1.5875
9.34061 1.52922 1.5875
63.3871 6.50775 1.5875
64.6459 7.42375 1.5875
20.9427 12.0914 1.5875
9.23801 3.37549 1.5875
74.7684 12.4732 1.5875
1.45968 6.53141 1.5875
64.1348 9.20211 1.5875
70.7464 5.6642 1.5875
1.42797 12.4732 1.5875
74.7743 3.40179 1.5875
11.6204 7.42737 1.5875
55.2585 12.0663 1.5875
67.0897 3.32976 1.5875
55.3378 3.77463 1.5875
20.853 3.81364 1.5875
70.8339 10.3065 1.5875
5.41946 5.78709 1.5875
1.43948 9.35508 1.5875
12.8287 5.19396 1.5875
67.0987 12.5855 1.5875
12.8512 6.67646 1.5875
16.1775 3.38996 1.5875
9.1615 12.4569 1.5875
15.8653 14.5539 1.5875
74.7295 6.51976 1.5875
62.1641 7.26464 1.5875
60.0421 3.39056 1.5875
74.7456 9.39178 1.5875
14.0108 7.37801 1.5875
60.2677 14.3248 1.5875
59.9714 12.532 1.5875
60.2716 1.40768 1.5875
6.36623 7.09827 1.5875
3.12389 1.35288 1.5875
5.45505 10.2093 1.5875
15.9534 1.39395 1.5875
16.2587 12.5231 1.5875
18.4662 14.4656 1.5875
73.1284 1.34797 1.5875
56.7891 8.80842 1.5875
73.1911 14.4947 1.5875
19.4143 8.80356 1.5875
3.0616 14.4936 1.5875
57.8503 14.5637 1.5875
57.868 1.30734 1.5875
11.2178 14.6354 1.5875
63.734 5.16913 1.5875
15.4671 5.84661 1.5875
64.7885 12.2396 1.5875
18.3239 1.2942 1.5875
60.6891 5.79586 1.5875
13.6058 13.122 1.5875
10.2135 5.86025 1.5875
4.28315 12.5426 1.5875
11.4332 12.3095 1.5875
66.1214 5.83264 1.5875
71.9689 3.4179 1.5875
60.8799 10.4546 1.5875
65.1264 1.34156 1.5875
65.1126 14.6207 1.5875
4.36129 3.42465 1.5875
10.9554 1.27575 1.5875
71.9138 12.4735 1.5875
15.492 10.3421 1.5875
69.8385 8.79795 1.5875
62.4248 12.971 1.5875
62.395 2.93176 1.5875
62.4238 8.78942 1.5875
1.26478 7.93986 1.5875
13.8338 2.90997 1.5875
3.29939 5.33241 1.5875
11.658 3.20532 1.5875
72.8892 10.4833 1.5875
66.1096 10.1856 1.5875
12.3038 10.8429 1.5875
68.728 1.1889 1.5875
64.5207 3.07462 1.5875
72.9211 5.50174 1.5875
9.35802 8.77109 1.5875
22.3178 2.82817 1.5875
3.25952 10.4519 1.5875
13.9461 8.83942 1.5875
10.0272 10.2369 1.5875
7.57757 14.6049 1.5875
60.1531 8.30792 1.5875
19.6314 6.4892 1.5875
68.6947 14.622 1.5875
75.0032 7.9375 1.5875
53.8999 2.87888 1.5875
16.0797 8.40434 1.5875
65.9708 11.8069 1.5875
56.5641 6.49256 1.5875
69.8556 4.7347 1.5875
53.8964 12.9903 1.5875
7.5064 1.20731 1.5875
6.37713 4.76687 1.5875
69.8797 11.1958 1.5875
22.3936 13.0668 1.5875
68.4941 9.0178 1.5875
21.9105 1.26199 1.5875
63.8172 10.9222 1.5875
68.0649 10.3078 1.5875
54.2675 1.25927 1.5875
54.2787 14.6441 1.5875
66.6412 8.30565 1.5875
21.9354 14.6362 1.5875
19.7971 9.96463 1.5875
58.0956 8.84612 1.5875
6.25581 11.1792 1.5875
56.3997 9.96471 1.5875
6.96169 12.8823 1.5875
18.1187 8.83893 1.5875
69.256 3.1077 1.5875
36.9425 14.7389 1.5875
36.9425 1.13609 1.5875
39.265 14.7429 1.5875
39.265 1.13209 1.5875
34.6193 14.7573 1.5875
34.6193 1.11767 1.5875
41.5807 14.7573 1.5875
41.5807 1.11767 1.5875
69.2252 12.7999 1.5875
32.3082 14.7541 1.5875
32.3082 1.1209 1.5875
43.8918 1.1209 1.5875
43.8918 14.7541 1.5875
58.7528 10.4236 1.5875
17.9714 12.7605 1.5875
29.9982 14.7345 1.5875
29.9982 1.14051 1.5875
46.2018 1.14051 1.5875
46.2018 14.7345 1.5875
27.6826 14.7329 1.5875
27.6826 1.14208 1.5875
48.5174 1.14208 1.5875
48.5174 14.7329 1.5875
10.3186 11.8623 1.5875
58.2775 12.7518 1.5875
58.2827 3.11003 1.5875
17.8645 3.13574 1.5875
5.38453 14.6298 1.5875
17.4933 10.4635 1.5875
62.5809 4.55574 1.5875
7.08759 3.07754 1.5875
7.59321 7.07113 1.5875
58.2184 6.88539 1.5875
70.8362 14.6329 1.5875
17.9873 6.90484 1.5875
70.9337 1.08305 1.5875
5.39486 1.2863 1.5875
8.02077 5.26315 1.5875
68.3096 5.35311 1.5875
7.91373 10.6744 1.5875
70.3121 6.7097 1.5875
20.16 2.79212 1.5875
55.9844 2.72611 1.5875
20.7238 1.12534 1.5875
55.9946 13.1221 1.5875
55.4434 1.12692 1.5875
20.2351 13.2135 1.5875
55.4222 14.7474 1.5875
17.5132 5.38399 1.5875
23.8903 1.14296 1.5875
23.9582 2.29299 1.5875
75.1028 4.46991 1.5875
20.827 14.7468 1.5875
52.3 1.14032 1.5875
52.2519 2.29964 1.5875
58.6473 5.35882 1.5875
1.18458 4.41309 1.5875
52.2999 14.7652 1.5875
52.1756 13.5716 1.5875
62.7153 11.1113 1.5875
14.8476 1.13367 1.5875
1.12499 11.4421 1.5875
5.47125 13.4456 1.5875
1.08631 1.14191 1.5875
61.3835 1.11883 1.5875
61.8481 9.92029 1.5875
24.013 13.5595 1.5875
75.0844 11.4428 1.5875
61.3713 14.7644 1.5875
23.948 14.7498 1.5875
13.5629 11.12 1.5875
75.1258 14.7387 1.5875
1.07232 14.7397 1.5875
75.126 1.13671 1.5875
66.2326 4.12422 1.5875
70.7932 13.4619 1.5875
5.94044 9.21726 1.5875
17.2955 14.7791 1.5875
70.6946 2.58664 1.5875
5.54373 2.52064 1.5875
13.6239 4.43956 1.5875
12.0096 4.46516 1.5875
59.2102 14.7863 1.5875
59.2254 1.08647 1.5875
73.2565 4.51587 1.5875
72.7379 2.47491 1.5875
3.50151 2.48855 1.5875
14.9337 8.0766 1.5875
72.7018 13.3631 1.5875
3.41198 13.4191 1.5875
63.2898 0.982928 1.5875
60.9286 12.2528 1.5875
14.9937 14.7545 1.5875
14.4021 10.0464 1.5875
12.8862 1.03115 1.5875
11.5653 8.56271 1.5875
63.3172 14.8457 1.5875
16.9855 1.07379 1.5875
64.98 9.87378 1.5875
61.2852 7.98449 1.5875
68.6771 6.80803 1.5875
4.16151 1.04257 1.5875
1.0472 5.53701 1.5875
13.0371 15.0261 1.5875
17.0763 12.0052 1.5875
2.9865 11.4719 1.5875
1.02863 10.3324 1.5875
75.174 5.53708 1.5875
73.4472 11.4352 1.5875
2.2206 4.12496 1.5875
72.163 1.06153 1.5875
11.2492 9.94925 1.5875
71.9405 14.8839 1.5875
9.08917 7.20549 1.5875
73.9238 6.1166 1.5875
70.8976 4.48774 1.5875
4.27653 14.8938 1.5875
75.1913 10.3623 1.5875
73.8282 9.77458 1.5875
3.39273 4.46472 1.5875
1.01283 2.45663 1.5875
7.73982 8.81482 1.5875
15.7293 11.766 1.5875
18.8195 4.89206 1.5875
36.7041 13.6897 1.5875
36.7041 2.18534 1.5875
39.4959 13.6897 1.5875
39.4959 2.18534 1.5875
59.6585 7.29024 1.5875
16.5585 7.30154 1.5875
12.3814 12.8638 1.5875
34.3921 2.18759 1.5875
34.3921 13.6874 1.5875
41.8079 13.6874 1.5875
41.8079 2.18759 1.5875
9.8781 4.07669 1.5875
32.0802 13.6853 1.5875
32.0802 2.18967 1.5875
44.1199 2.18967 1.5875
44.1199 13.6853 1.5875
71.0495 11.4344 1.5875
29.7684 13.6834 1.5875
46.4316 2.19158 1.5875
46.4316 13.6834 1.5875
29.7684 2.19158 1.5875
75.2005 13.416 1.5875
27.4132 13.6906 1.5875
27.4132 2.18444 1.5875
48.7868 2.18444 1.5875
48.7868 13.6906 1.5875
25.7353 2.21345 1.5875
50.4647 13.6615 1.5875
50.4647 2.21345 1.5875
25.7353 13.6615 1.5875
0.998003 13.4157 1.5875
64.6923 8.45259 1.5875
75.2064 2.48187 1.5875
57.3623 4.89953 1.5875
67.1349 7.2674 1.5875
67.9616 12.6529 1.5875
63.9141 12.8489 1.5875
67.9854 3.24269 1.5875
59.035 11.857 1.5875
57.1631 10.988 1.5875
25.6957 1.00748 1.5875
50.5029 1.00795 1.5875
25.6913 14.8691 1.5875
50.5117 14.8705 1.5875
56.0252 5.62949 1.5875
20.1753 5.63062 1.5875
10.0474 14.7468 1.5875
2.35976 6.08413 1.5875
12.911 2.59459 1.5875
71.7527 5.72967 1.5875
59.0804 4.03391 1.5875
18.5713 2.27647 1.5875
2.34329 9.78673 1.5875
5.2678 4.41277 1.5875
15.6991 4.08598 1.5875
71.7135 10.1868 1.5875
4.17469 10.15 1.5875
63.3271 2.64025 1.5875
5.15837 11.5215 1.5875
18.979 10.8952 1.5875
11.5503 13.4922 1.5875
2.32483 0.984467 1.5875
67.776 1.00101 1.5875
8.5227 12.0028 1.5875
14.5071 12.3062 1.5875
4.204 5.69852 1.5875
57.6453 2.27976 1.5875
19.9985 3.61388 1.5875
8.48715 1.00135 1.5875
73.9266 0.975715 1.5875
16.3597 2.27433 1.5875
56.1523 3.68449 1.5875
73.9213 14.914 1.5875
8.55066 14.7753 1.5875
10.6256 8.07511 1.5875
65.4068 5.19539 1.5875
57.5755 13.4831 1.5875
2.26801 14.9063 1.5875
67.7291 14.8792 1.5875
56.37 12.1613 1.5875
14.8074 6.63253 1.5875
17.0516 4.1803 1.5875
61.3679 6.55269 1.5875
65.8929 7.91563 1.5875
2.25827 2.77806 1.5875
66.3262 1.104 1.5875
59.9876 2.3458 1.5875
10.889 6.68533 1.5875
66.2329 14.8037 1.5875
11.8065 0.930577 1.5875
8.16659 3.22268 1.5875
19.8578 12.1729 1.5875
18.9118 13.6909 1.5875
59.9497 13.63 1.5875
65.4046 6.64608 1.5875
12.8176 9.05986 1.5875
64.3974 0.936747 1.5875
73.9195 13.108 1.5875
20.7609 11.2679 1.5875
2.24568 13.1023 1.5875
64.7963 13.5076 1.5875
73.9904 2.78069 1.5875
60.4229 4.11586 1.5875
55.4449 11.2534 1.5875
64.3799 14.9411 1.5875
55.3929 4.62888 1.5875
20.8023 4.63842 1.5875
14.8745 5.07791 1.5875
68.7485 8.21084 1.5875
60.8094 11.3172 1.5875
21.7937 12.3772 1.5875
16.3198 13.5848 1.5875
9.56064 2.45632 1.5875
10.8282 5.14115 1.5875
64.1689 4.37514 1.5875
10.0028 1.07036 1.5875
69.5971 0.893476 1.5875
3.67423 11.7893 1.5875
11.3785 2.33718 1.5875
8.56569 4.20331 1.5875
62.2681 12.1875 1.5875
69.487 15.1344 1.5875
21.7942 3.72608 1.5875
72.522 11.9057 1.5875
22.9504 0.633118 1.5875
66.6991 2.46172 1.5875
70.6154 9.3307 1.5875
53.2438 0.634775 1.5875
53.2936 15.2324 1.5875
52.9062 13.1315 1.5875
54.3521 3.69894 1.5875
22.9109 15.2334 1.5875
52.916 2.90235 1.5875
18.9984 12.0686 1.5875
54.3623 12.1871 1.5875
23.2501 2.83357 1.5875
6.67146 0.775873 1.5875
6.59431 15.1588 1.5875
66.6785 13.4088 1.5875
11.9195 15.1006 1.5875
61.389 5.18422 1.5875
9.322 5.8766 1.5875
19.1555 14.9795 1.5875
56.5243 8.03039 1.5875
19.6758 8.02414 1.5875
9.62046 13.4091 1.5875
57.0958 0.877632 1.5875
57.0739 14.9946 1.5875
63.2677 8.87258 1.5875
23.3107 13.0107 1.5875
63.056 13.6541 1.5875
9.15468 10.1434 1.5875
72.6398 3.99926 1.5875
19.0818 0.871305 1.5875
64.8606 2.24618 1.5875
61.6269 3.35841 1.5875
74.2647 4.00836 1.5875
57.3092 11.8758 1.5875
14.5887 3.44043 1.5875
67.6044 4.46868 1.5875
70.2159 7.96354 1.5875
57.3784 3.99481 1.5875
60.3828 9.5906 1.5875
62.9472 5.73007 1.5875
69.0948 2.27314 1.5875
57.9461 7.98805 1.5875
67.677 11.4152 1.5875
18.2503 7.98789 1.5875
67.0435 5.78917 1.5875
16.3502 5.70087 1.5875
7.21549 4.93173 1.5875
18.777 3.97708 1.5875
6.78919 3.95018 1.5875
6.61913 11.9247 1.5875
0.817914 7.20756 1.5875
68.8329 10.7786 1.5875
0.811851 8.66935 1.5875
10.5322 3.56064 1.5875
13.6444 12.0675 1.5875
15.8548 9.59459 1.5875
7.25252 2.15579 1.5875
69.0106 13.6982 1.5875
17.5978 9.62093 1.5875
75.3956 8.67537 1.5875
74.4082 8.5579 1.5875
1.77601 11.7518 1.5875
63.8058 10.0477 1.5875
7.34527 13.8446 1.5875
58.6548 9.58425 1.5875
11.7266 11.5129 1.5875
63.9281 7.18333 1.5875
5.97211 7.841 1.5875
60.0365 6.3083 1.5875
74.495 11.7551 1.5875
75.3901 7.20879 1.5875
65.7392 3.57787 1.5875
9.9719 11.0435 1.5875
47.9011 2.27949 1.5875
47.9011 13.5955 1.5875
28.2989 2.27949 1.5875
28.2989 13.5955 1.5875
45.5839 2.28047 1.5875
45.5839 13.5945 1.5875
30.6161 2.28047 1.5875
30.6161 13.5945 1.5875
32.9223 2.27881 1.5875
43.2777 13.5962 1.5875
32.9223 13.5962 1.5875
43.2777 2.27881 1.5875
16.0998 6.58345 1.5875
18.0346 13.5765 1.5875
40.9676 13.5969 1.5875
40.9676 2.27812 1.5875
35.2324 2.27812 1.5875
35.2324 13.5969 1.5875
6.97846 11.1663 1.5875
9.52784 8.02775 1.5875
7.42729 7.78708 1.5875
38.6572 13.5718 1.5875
38.6572 2.30316 1.5875
37.5428 13.5718 1.5875
37.5428 2.30316 1.5875
5.62344 6.62367 1.5875
74.4052 7.30049 1.5875
7.06955 9.29486 1.5875
59.7865 5.64145 1.5875
7.9369 12.497 1.5875
39.9839 0.79745 1.5875
39.9839 15.0775 1.5875
36.2169 0.797859 1.5875
36.2169 15.0771 1.5875
33.8995 15.0787 1.5875
33.8995 0.796276 1.5875
42.3005 0.796276 1.5875
42.3005 15.0787 1.5875
62.9568 7.23012 1.5875
17.2651 8.82758 1.5875
69.5422 3.89659 1.5875
10.0995 4.96746 1.5875
37.7018 15.0661 1.5875
37.7018 0.808867 1.5875
16.407 10.3146 1.5875
58.8898 8.79699 1.5875
31.5604 15.0714 1.5875
31.5604 0.803596 1.5875
44.6396 0.803596 1.5875
44.6396 15.0714 1.5875
57.3884 6.7207 1.5875
59.8591 10.2433 1.5875
19.3241 5.55815 1.5875
29.2215 15.084 1.5875
29.2215 0.790981 1.5875
46.9785 0.790981 1.5875
46.9785 15.084 1.5875
18.8114 6.72621 1.5875
69.5283 11.9884 1.5875
62.489 8.02707 1.5875
26.8811 15.0466 1.5875
26.8811 0.828438 1.5875
49.3189 0.828438 1.5875
49.3189 15.0466 1.5875
12.4211 5.97462 1.5875
56.8672 5.56748 1.5875
54.0989 13.8588 1.5875
62.0111 10.6781 1.5875
69.0895 5.07871 1.5875
12.4421 7.39139 1.5875
54.1077 2.01418 1.5875
64.5191 11.5778 1.5875
12.0688 6.74173 1.5875
62.423 3.73783 1.5875
20.3982 10.5164 1.5875
22.0796 2.00715 1.5875
13.3341 13.7594 1.5875
73.5704 2.08811 1.5875
5.16506 3.2809 1.5875
2.74517 13.7435 1.5875
15.5256 4.90543 1.5875
73.5896 13.7875 1.5875
58.8976 12.9111 1.5875
13.6198 6.70707 1.5875
66.23 5.02999 1.5875
15.3643 12.5123 1.5875
13.2604 7.40262 1.5875
55.8188 10.5188 1.5875
2.67004 2.0764 1.5875
24.5629 0.822225 1.5875
51.2584 2.45505 1.5875
51.2584 13.4199 1.5875
24.9416 2.45505 1.5875
24.9416 13.4199 1.5875
13.2472 5.97115 1.5875
58.9029 2.97605 1.5875
7.54129 6.27266 1.5875
56.2265 0.813263 1.5875
66.6171 6.5359 1.5875
17.1132 12.8032 1.5875
66.354 9.40207 1.5875
51.6324 0.822283 1.5875
60.7402 3.30188 1.5875
64.5722 5.13664 1.5875
22.1458 13.8685 1.5875
66.9448 10.2188 1.5875
51.5141 15.0591 1.5875
66.1639 1.84183 1.5875
66.2193 10.9952 1.5875
56.3764 7.23323 1.5875
61.7141 12.5342 1.5875
6.37638 2.59124 1.5875
56.2005 15.0635 1.5875
19.8222 7.23057 1.5875
71.1092 12.6553 1.5875
10.1354 1.80105 1.5875
64.1848 6.37502 1.5875
24.6703 14.9114 1.5875
66.117 14.0257 1.5875
16.6806 15.1605 1.5875
60.6025 4.92768 1.5875
13.6236 8.05473 1.5875
69.8035 13.2779 1.5875
56.136 9.23212 1.5875
20.0655 9.23225 1.5875
62.5725 6.49463 1.5875
5.07192 12.7146 1.5875
9.68015 6.65866 1.5875
67.3674 8.58454 1.5875
10.187 13.9983 1.5875
63.1362 1.98306 1.5875
69.9469 2.58544 1.5875
61.918 2.25717 1.5875
14.33 2.24422 1.5875
9.82935 9.43378 1.5875
62.5474 0.76136 1.5875
20.4113 2.00726 1.5875
19.3863 2.46236 1.5875
49.6159 2.42461 1.5875
26.5841 13.4504 1.5875
26.5841 2.42461 1.5875
49.6159 13.4504 1.5875
13.6797 0.772383 1.5875
15.4768 3.28631 1.5875
19.96 0.792727 1.5875
61.8251 13.6399 1.5875
56.9698 2.42963 1.5875
14.1705 13.6056 1.5875
55.708 1.95533 1.5875
56.8386 13.5095 1.5875
1.73371 8.59157 1.5875
71.1932 3.71716 1.5875
55.6634 13.9158 1.5875
20.0744 15.0059 1.5875
66.2642 12.5854 1.5875
62.5321 15.1131 1.5875
17.2361 2.97113 1.5875
69.4918 6.71107 1.5875
7.70749 9.99475 1.5875
45.5428 15.0563 1.5875
45.5428 0.818732 1.5875
30.6572 0.818732 1.5875
30.6572 15.0563 1.5875
20.5412 13.9343 1.5875
1.71586 7.31339 1.5875
14.2937 10.7597 1.5875
13.0506 1.90718 1.5875
58.4462 6.0444 1.5875
43.2226 15.0616 1.5875
43.2226 0.813405 1.5875
32.9774 0.813405 1.5875
32.9774 15.0616 1.5875
13.6409 5.23662 1.5875
2.60518 4.73355 1.5875
8.60586 14.0211 1.5875
9.57765 11.7828 1.5875
58.5933 15.1402 1.5875
12.6874 9.95213 1.5875
58.605 0.731692 1.5875
40.9023 0.812546 1.5875
40.9023 15.0625 1.5875
35.2978 15.0624 1.5875
35.2978 0.812604 1.5875
17.7353 6.0636 1.5875
8.47571 8.80934 1.5875
12.0138 5.25538 1.5875
63.9312 8.4678 1.5875
38.5839 15.0523 1.5875
38.5839 0.822666 1.5875
6.29585 6.07987 1.5875
67.7028 1.80871 1.5875
6.26349 13.2884 1.5875
12.2694 8.6333 1.5875
67.6642 14.0747 1.5875
13.7366 15.0687 1.5875
17.5963 0.722318 1.5875
5.15894 9.43401 1.5875
15.2343 14.1386 1.5875
63.2215 12.8934 1.5875
28.3331 0.8177 1.5875
28.3331 15.0573 1.5875
47.8669 0.8177 1.5875
47.8669 15.0573 1.5875
13.8338 3.69171 1.5875
69.9796 5.54071 1.5875
70.0292 10.3695 1.5875
17.3782 11.2652 1.5875
0.534083 3.38784 1.5875
8.8467 13.2243 1.5875
66.7637 11.786 1.5875
3.5161 0.663675 1.5875
72.5941 15.1588 1.5875
3.61532 15.1632 1.5875
54.8906 12.8387 1.5875
67.9479 7.09553 1.5875
54.8548 2.96985 1.5875
6.95473 6.57581 1.5875
21.2532 3.0176 1.5875
61.084 1.67373 1.5875
61.0429 14.1255 1.5875
60.1218 11.8164 1.5875
67.4762 2.60363 1.5875
9.47087 15.0944 1.5875
69.2143 9.3149 1.5875
0.671118 6.38914 1.5875
8.59242 1.78502 1.5875
10.0046 12.5908 1.5875
67.448 13.2875 1.5875
15.1824 1.702 1.5875
21.2834 12.8583 1.5875
16.6719 14.2507 1.5875
67.0133 0.730688 1.5875
5.11727 5.06832 1.5875
75.4319 3.79915 1.5875
0.648481 9.48256 1.5875
68.4609 6.05844 1.5875
75.5351 12.4732 1.5875
0.647108 1.84982 1.5875
8.77282 2.70351 1.5875
0.663962 12.4732 1.5875
75.5578 14.026 1.5875
75.5579 1.847 1.5875
0.641601 14.0261 1.5875
71.5099 11.9013 1.5875
66.9778 15.1249 1.5875
72.7148 0.63628 1.5875
64.4806 10.4241 1.5875
8.37473 7.17237 1.5875
63.714 5.87516 1.5875
54.8218 0.669387 1.5875
75.5394 6.39924 1.5875
58.9973 11.1556 1.5875
9.22309 0.765346 1.5875
70.975 6.38625 1.5875
66.3158 3.13465 1.5875
54.8129 15.1926 1.5875
21.3532 0.69386 1.5875
71.3806 2.80049 1.5875
58.1023 10.8003 1.5875
21.4565 11.6376 1.5875
17.2942 7.20976 1.5875
69.8945 9.60166 1.5875
6.14019 10.0022 1.5875
60.7154 0.821596 1.5875
5.03134 10.8437 1.5875
70.4125 15.2304 1.5875
60.6753 15.11 1.5875
15.5055 0.805515 1.5875
56.9441 9.58039 1.5875
75.5433 9.46915 1.5875
70.3703 0.660107 1.5875
65.2236 11.6912 1.5875
9.92145 3.18491 1.5875
5.82142 15.2142 1.5875
4.7779 6.08051 1.5875
19.2616 9.57062 1.5875
17.9263 15.0527 1.5875
21.383 15.1586 1.5875
21.4058 4.37724 1.5875
71.3134 5.15062 1.5875
59.0552 4.6829 1.5875
10.7419 12.4942 1.5875
15.5218 15.1667 1.5875
58.691 14.2377 1.5875
66.9613 4.11695 1.5875
57.3328 8.38154 1.5875
58.7081 1.63668 1.5875
18.8711 8.37737 1.5875
61.6505 8.48922 1.5875
71.361 10.7728 1.5875
40.1687 13.4891 1.5875
36.0313 2.38591 1.5875
40.1687 2.38591 1.5875
36.0313 13.4891 1.5875
11.2728 9.22546 1.5875
59.9213 0.767369 1.5875
59.9273 15.0841 1.5875
33.7216 2.387 1.5875
33.7216 13.488 1.5875
42.4784 13.488 1.5875
42.4784 2.387 1.5875
54.793 4.33029 1.5875
44.7843 2.38905 1.5875
44.7843 13.4859 1.5875
31.4157 2.38905 1.5875
31.4157 13.4859 1.5875
47.0949 13.4853 1.5875
29.1051 2.38969 1.5875
47.0949 2.38969 1.5875
29.1051 13.4853 1.5875
3.08455 9.75714 1.5875
58.9715 7.26069 1.5875
18.9464 1.75696 1.5875
18.1576 10.8232 1.5875
54.7983 11.5658 1.5875
11.9316 10.1508 1.5875
12.1027 2.62578 1.5875
12.8084 4.4178 1.5875
6.71675 7.90064 1.5875
5.88853 0.669643 1.5875
16.2856 0.764421 1.5875
64.9318 9.17734 1.5875
17.4553 1.48575 1.5875
17.0783 4.82322 1.5875
72.6873 4.82573 1.5875
3.09157 6.0479 1.5875
65.4244 12.5447 1.5875
4.80984 3.96751 1.5875
63.3101 4.49749 1.5875
11.0028 11.7478 1.5875
57.319 1.72676 1.5875
56.9443 10.2589 1.5875
74.6048 5.78638 1.5875
68.5859 7.52784 1.5875
10.8828 7.41993 1.5875
57.2538 14.1564 1.5875
13.0581 12.5642 1.5875
11.2745 15.2465 1.5875
59.6525 1.66164 1.5875
15.755 10.9986 1.5875
14.793 7.39114 1.5875
59.5741 14.1909 1.5875
60.471 12.9355 1.5875
11.209 0.600327 1.5875
64.9803 15.2959 1.5875
74.5206 10.1372 1.5875
72.4472 9.99741 1.5875
10.1376 8.53803 1.5875
11.5538 3.93179 1.5875
64.9892 0.633156 1.5875
3.8916 1.86769 1.5875
13.0468 10.6715 1.5875
5.61188 7.3249 1.5875
1.69446 5.7937 1.5875
4.60623 11.9319 1.5875
16.3926 11.8664 1.5875
3.45323 12.6436 1.5875
16.5706 1.59674 1.5875
61.4527 7.3156 1.5875
1.69349 10.1324 1.5875
16.3688 8.9733 1.5875
67.9314 9.59643 1.5875
9.07292 9.39937 1.5875
72.4222 6.00767 1.5875
3.91539 14.3709 1.5875
72.3382 14.2968 1.5875
60.0013 8.99097 1.5875
71.2055 9.66474 1.5875
62.1987 5.08123 1.5875
72.3757 1.85939 1.5875
4.08259 13.2214 1.5875
18.4772 13.0012 1.5875
3.65236 3.6302 1.5875
8.67554 5.50984 1.5875
0.64408 4.96218 1.5875
2.2223 9.04918 1.5875
68.6239 9.8303 1.5875
4.77495 2.69305 1.5875
19.2327 10.2588 1.5875
5.65225 8.5475 1.5875
72.6839 11.2707 1.5875
72.6268 3.16965 1.5875
71.0541 1.88578 1.5875
0.643669 10.9259 1.5875
14.6855 8.6567 1.5875
18.2007 5.25248 1.5875
1.68251 0.6615 1.5875
3.62035 11.0745 1.5875
74.1172 12.4464 1.5875
19.645 13.5733 1.5875
8.40526 11.1848 1.5875
75.5796 4.96968 1.5875
2.0941 12.4508 1.5875
2.20047 6.80171 1.5875
75.5734 10.9379 1.5875
5.18035 1.9419 1.5875
65.399 7.38285 1.5875
22.2636 0.648915 1.5875
14.4014 0.599004 1.5875
75.4749 3.12039 1.5875
21.2592 1.58186 1.5875
61.7966 15.2804 1.5875
61.0907 9.81008 1.5875
74.0456 3.43203 1.5875
72.7371 12.6464 1.5875
11.8346 14.1272 1.5875
4.86858 0.688479 1.5875
64.1829 3.65783 1.5875
61.8086 0.597173 1.5875
10.9529 13.8486 1.5875
58.335 13.4085 1.5875
72.0846 13.217 1.5875
57.7954 15.2338 1.5875
54.894 1.55688 1.5875
57.8104 0.63662 1.5875
58.3607 2.43548 1.5875
14.4501 15.2774 1.5875
7.32076 15.2072 1.5875
67.7009 5.17038 1.5875
15.4183 8.51202 1.5875
60.8596 8.42655 1.5875
57.9675 5.25627 1.5875
18.3867 12.2151 1.5875
54.8771 14.3212 1.5875
14.215 4.77375 1.5875
12.0193 7.99353 1.5875
10.8862 6.02183 1.5875
14.7861 5.95035 1.5875
53.9248 0.643375 1.5875
64.1386 12.1503 1.5875
67.1295 7.94439 1.5875
71.0858 14.007 1.5875
4.89896 15.2148 1.5875
71.4855 0.741293 1.5875
65.4791 6.00935 1.5875
66.0151 6.51353 1.5875
62.4967 9.53263 1.5875
21.3641 14.3132 1.5875
61.3341 5.91005 1.5875
74.5302 0.639612 1.5875
54.0254 15.2421 1.5875
18.3804 0.625474 1.5875
71.7942 4.05533 1.5875
13.9037 9.57482 1.5875
74.5291 15.2381 1.5875
0.57891 7.93835 1.5875
17.9138 2.56397 1.5875
2.98122 2.65725 1.5875
12.1797 12.2107 1.5875
63.3222 11.3679 1.5875
61.3472 10.8289 1.5875
65.6164 9.67417 1.5875
2.87756 15.2626 1.5875
17.6363 14.1825 1.5875
65.4239 10.4793 1.5875
5.09584 13.983 1.5875
2.57136 5.47619 1.5875
15.0793 9.79253 1.5875
1.66819 15.2376 1.5875
68.8133 15.3032 1.5875
10.3279 6.51248 1.5875
71.3362 15.2151 1.5875
15.422 6.52002 1.5875
68.8198 0.555189 1.5875
69.4787 8.22025 1.5875
65.3339 13.8827 1.5875
64.5188 14.1308 1.5875
6.07814 5.41828 1.5875
73.6446 10.3658 1.5875
10.5608 9.74597 1.5875
68.1803 11.0199 1.5875
65.176 2.99113 1.5875
17.5478 3.69738 1.5875
13.5871 2.25054 1.5875
70.4944 5.03386 1.5875
73.2113 9.85948 1.5875
10.7433 10.5977 1.5875
22.1798 15.2398 1.5875
2.13594 3.47467 1.5875
8.46129 10.3655 1.5875
73.3327 15.2635 1.5875
70.5486 10.9481 1.5875
1.93033 7.95235 1.5875
7.39359 0.513074 1.5875
57.8664 12.2029 1.5875
65.7396 4.51121 1.5875
63.1928 10.6715 1.5875
64.502 1.57459 1.5875
55.914 6.70616 1.5875
9.15822 4.11693 1.5875
20.286 6.7041 1.5875
12.4872 3.21085 1.5875
14.944 10.8469 1.5875
73.3085 2.7026 1.5875
60.34 10.6745 1.5875
22.5681 12.3766 1.5875
16.7111 8.39137 1.5875
73.4875 5.1117 1.5875
23.6921 14.1216 1.5875
68.7119 12.3335 1.5875
68.7313 3.55539 1.5875
19.4716 4.28746 1.5875
8.96582 8.22414 1.5875
59.5287 7.91086 1.5875
11.445 4.75376 1.5875
22.6023 3.4163 1.5875
60.1517 7.56124 1.5875
14.5535 14.1866 1.5875
58.5696 3.6466 1.5875
12.8448 11.293 1.5875
11.5987 1.61419 1.5875
16.3845 4.06306 1.5875
15.8129 13.1539 1.5875
57.6997 3.41252 1.5875
69.9073 6.20774 1.5875
70.5355 8.67863 1.5875
73.2959 13.1788 1.5875
55.4795 5.36603 1.5875
2.56076 10.3661 1.5875
63.0201 3.31085 1.5875
15.0573 11.9583 1.5875
64.1006 2.60106 1.5875
73.201 6.10745 1.5875
71.4145 13.277 1.5875
15.6534 7.86611 1.5875
63.3691 9.55236 1.5875
75.6493 7.93844 1.5875
0.574924 4.14674 1.5875
51.9571 14.1986 1.5875
37.3596 14.2453 1.5875
37.3596 1.62968 1.5875
38.8769 14.2491 1.5875
38.8769 1.62591 1.5875
53.5459 3.45176 1.5875
51.957 1.67529 1.5875
24.243 1.67357 1.5875
3.8659 4.88872 1.5875
60.7085 6.44837 1.5875
0.59609 11.7091 1.5875
59.7233 4.10035 1.5875
74.0351 9.14611 1.5875
2.86405 13.1142 1.5875
35.0117 14.2568 1.5875
35.0117 1.61825 1.5875
41.1883 1.61824 1.5875
41.1883 14.2568 1.5875
13.2035 3.33741 1.5875
74.0003 6.77826 1.5875
57.4646 9.18918 1.5875
20.7204 5.36888 1.5875
53.5576 12.4375 1.5875
32.7019 14.2557 1.5875
32.7019 1.61926 1.5875
43.4981 1.61926 1.5875
43.4981 14.2557 1.5875
8.59967 12.6059 1.5875
64.2474 7.87426 1.5875
75.6088 11.7121 1.5875
30.3945 14.2524 1.5875
30.3945 1.62258 1.5875
45.8055 1.62258 1.5875
45.8055 14.2524 1.5875
18.4636 3.40527 1.5875
73.3454 0.591992 1.5875
5.76368 14.0823 1.5875
28.0797 14.2528 1.5875
48.1203 1.6222 1.5875
48.1203 14.2528 1.5875
28.0797 1.6222 1.5875
64.9021 3.56146 1.5875
18.7483 9.17907 1.5875
4.73683 13.2925 1.5875
2.86965 4.0467 1.5875
25.2686 0.536771 1.5875
68.3648 1.7935 1.5875
48.5969 0.538379 1.5875
48.5969 15.3366 1.5875
27.6031 0.538379 1.5875
27.6031 15.3366 1.5875
11.0087 3.00293 1.5875
70.2938 4.22935 1.5875
70.4774 7.34791 1.5875
11.5632 10.7131 1.5875
72.1381 2.63754 1.5875
50.9251 0.534996 1.5875
66.5927 7.70265 1.5875
46.2643 0.534237 1.5875
46.2643 15.3408 1.5875
29.9357 15.3408 1.5875
29.9357 0.534237 1.5875
2.88153 0.600205 1.5875
12.8568 13.2718 1.5875
20.4351 9.86125 1.5875
38.1011 13.3531 1.5875
38.1011 2.52191 1.5875
4.73874 1.43186 1.5875
50.9211 15.3403 1.5875
5.97002 10.5988 1.5875
72.265 5.32983 1.5875
22.5149 1.36308 1.5875
10.8057 1.94914 1.5875
43.9316 15.3447 1.5875
43.9316 0.530336 1.5875
32.2684 0.530336 1.5875
32.2684 15.3447 1.5875
56.7055 4.30278 1.5875
7.98116 1.70513 1.5875
55.7669 9.85648 1.5875
68.2548 14.1448 1.5875
71.5679 1.43918 1.5875
20.0979 8.44419 1.5875
8.03229 14.1283 1.5875
70.3764 11.6646 1.5875
1.6 2.74204 1.5875
41.599 0.526678 1.5875
41.599 15.3483 1.5875
34.601 15.3483 1.5875
34.601 0.526678 1.5875
69.249 1.59393 1.5875
1.65834 3.9676 1.5875
69.2733 11.2613 1.5875
6.93169 14.4911 1.5875
8.06288 4.59212 1.5875
62.9542 5.00673 1.5875
65.5095 1.91868 1.5875
25.2884 15.3408 1.5875
53.6066 1.28127 1.5875
20.1896 4.34399 1.5875
7.56726 3.53537 1.5875
56.1021 8.44679 1.5875
39.2663 0.523266 1.5875
39.2663 15.3517 1.5875
36.9337 15.3517 1.5875
36.9337 0.523266 1.5875
62.6152 2.27907 1.5875
53.4697 2.38878 1.5875
55.9933 4.35066 1.5875
53.6471 14.5239 1.5875
23.6156 1.78034 1.5875
5.92069 4.21041 1.5875
65.7267 0.71084 1.5875
8.06467 15.282 1.5875
22.7283 2.37846 1.5875
0.588195 0.587074 1.5875
39.7488 1.58416 1.5875
36.4354 14.3041 1.5875
39.7488 14.2908 1.5875
36.4354 1.57091 1.5875
17.0497 5.7359 1.5875
60.4248 2.71516 1.5875
34.1255 1.57352 1.5875
34.1255 14.3015 1.5875
42.0745 1.57352 1.5875
42.0745 14.3015 1.5875
4.69406 9.99842 1.5875
15.1167 3.82692 1.5875
61.7278 14.2925 1.5875
69.3671 14.4191 1.5875
31.8306 14.2871 1.5875
31.8306 1.58793 1.5875
44.3694 1.58793 1.5875
44.3694 14.2871 1.5875
1.40308 5.07038 1.5875
53.4909 13.4726 1.5875
67.497 12.0187 1.5875
55.9798 11.7197 1.5875
46.675 1.59486 1.5875
46.675 14.2801 1.5875
29.525 14.2801 1.5875
29.525 1.59486 1.5875
75.607 15.2814 1.5875
67.5248 10.6157 1.5875
61.7678 1.55598 1.5875
0.600522 15.2749 1.5875
75.6071 0.593453 1.5875
27.1961 14.295 1.5875
27.1961 1.58005 1.5875
49.0039 14.295 1.5875
49.0039 1.58005 1.5875
9.56454 10.6222 1.5875
19.1493 14.3409 1.5875
68.6489 2.92353 1.5875
61.7112 9.24791 1.5875
70.3246 1.32307 1.5875
66.1131 8.67817 1.5875
26.1194 0.593304 1.5875
26.1207 15.2821 1.5875
50.0804 15.2821 1.5875
50.0799 0.593193 1.5875
21.7307 2.64877 1.5875
70.8129 3.1463 1.5875
55.5949 15.365 1.5875
5.78531 11.7109 1.5875
22.5929 14.6046 1.5875
1.50559 10.9326 1.5875
19.0729 6.14939 1.5875
22.8154 13.5061 1.5875
56.695 11.6902 1.5875
68.5998 12.9754 1.5875
57.8228 7.35838 1.5875
68.056 8.55356 1.5875
65.7 15.1873 1.5875
58.6112 12.2593 1.5875
13.3277 8.68699 1.5875
6.8691 1.44355 1.5875
66.7804 8.918 1.5875
74.6239 13.1413 1.5875
55.5949 0.506578 1.5875
23.6 15.2686 1.5875
74.3914 7.94404 1.5875
52.5715 1.79768 1.5875
20.679 15.338 1.5875
58.0043 9.50474 1.5875
50.6087 14.2767 1.5875
50.6078 1.5983 1.5875
25.5941 14.2789 1.5875
25.5915 1.59751 1.5875
21.7719 13.2469 1.5875
14.5376 9.34436 1.5875
23.7077 0.556198 1.5875
1.5711 13.141 1.5875
59.2502 10.0646 1.5875
52.6303 15.2696 1.5875
74.8321 5.09387 1.5875
70.4813 14.2035 1.5875
54.4118 2.52149 1.5875
52.4908 0.555903 1.5875
74.6695 2.76367 1.5875
18.3755 7.36968 1.5875
63.4199 14.1706 1.5875
64.6415 12.8556 1.5875
14.463 1.56159 1.5875
57.1187 6.15212 1.5875
20.2369 11.6908 1.5875
58.2612 10.0889 1.5875
7.68806 2.88138 1.5875
20.6051 0.501779 1.5875
6.18118 1.34545 1.5875
54.4445 13.3336 1.5875
59.1092 5.69574 1.5875
65.554 11.1983 1.5875
71.6432 6.34494 1.5875
67.5751 3.82667 1.5875
17.7215 12.1614 1.5875
57.7817 12.9155 1.5875
16.9909 10.1083 1.5875
52.563 14.0662 1.5875
72.1953 10.6149 1.5875
7.28761 12.3954 1.5875
10.5461 0.569491 1.5875
7.48159 13.0634 1.5875
59.338 10.6183 1.5875
61.8083 7.8162 1.5875
6.44227 12.5667 1.5875
18.5878 15.2503 1.5875
7.96414 0.555158 1.5875
11.259 7.9895 1.5875
74.7551 10.9211 1.5875
18.2433 9.47508 1.5875
4.10706 4.19771 1.5875
20.4537 12.5758 1.5875
64.3868 9.78338 1.5875
62.0357 4.27493 1.5875
56.8731 6.98981 1.5875
68.2774 4.71267 1.5875
16.9352 10.6896 1.5875
59.5322 8.57967 1.5875
11.759 12.874 1.5875
19.6774 10.5612 1.5875
4.05667 2.82592 1.5875
69.3031 4.48496 1.5875
69.8432 3.26568 1.5875
14.3275 8.03169 1.5875
20.6522 3.13033 1.5875
17.9753 10.1294 1.5875
19.3249 6.98982 1.5875
58.4411 8.34062 1.5875
70.8775 11.9984 1.5875
56.451 10.5682 1.5875
1.75426 14.4779 1.5875
55.7639 12.546 1.5875
68.2617 15.3109 1.5875
24.1815 2.86208 1.5875
74.4423 14.4789 1.5875
14.0368 11.5527 1.5875
56.4545 12.8173 1.5875
63.6284 13.461 1.5875
55.7176 3.1399 1.5875
74.4452 1.40002 1.5875
15.9107 2.71125 1.5875
8.85312 15.3755 1.5875
17.756 8.34624 1.5875
69.8069 12.6402 1.5875
9.76379 5.44567 1.5875
12.3991 0.633352 1.5875
56.4378 3.00075 1.5875
6.16849 14.5863 1.5875
1.77816 1.4039 1.5875
62.0015 6.67999 1.5875
19.6431 3.15619 1.5875
12.212 3.86473 1.5875
52.0173 2.86714 1.5875
6.5373 3.36668 1.5875
66.4055 0.509106 1.5875
17.8017 7.57704 1.5875
55.4089 13.1891 1.5875
10.6597 15.3007 1.5875
63.8071 0.624466 1.5875
19.7881 12.7638 1.5875
58.386 7.61416 1.5875
71.5453 14.4141 1.5875
24.3301 14.118 1.5875
52.0165 13.0046 1.5875
17.5644 13.1859 1.5875
64.7557 6.79867 1.5875
62.6376 10.5181 1.5875
63.7915 15.2474 1.5875
6.50227 9.0328 1.5875
62.9132 8.42387 1.5875
7.56124 5.64425 1.5875
8.11423 5.88282 1.5875
10.6384 11.2776 1.5875
62.8646 12.3766 1.5875
65.0446 7.91057 1.5875
6.66266 5.26706 1.5875
12.5151 14.5948 1.5875
3.69799 6.05467 1.5875
68.279 0.549021 1.5875
6.5375 10.6848 1.5875
1.82963 4.57481 1.5875
66.4419 15.38 1.5875
14.265 12.9917 1.5875
60.7466 7.73512 1.5875
60.5679 13.6033 1.5875
69.4645 10.7361 1.5875
13.756 10.372 1.5875
7.26543 10.6464 1.5875
4.68688 14.4962 1.5875
18.081 1.88912 1.5875
9.11685 13.7378 1.5875
7.63706 11.1801 1.5875
58.8013 6.63518 1.5875
73.5801 3.97811 1.5875
24.187 12.9901 1.5875
62.9615 3.97715 1.5875
20.8052 13.2408 1.5875
3.68381 9.9663 1.5875
9.03022 6.61399 1.5875
13.3059 3.90757 1.5875
12.5349 15.2806 1.5875
13.2455 14.4054 1.5875
2.35173 14.282 1.5875
70.0752 14.6246 1.5875
67.2026 2.1073 1.5875
17.3784 15.3485 1.5875
18.3299 6.39019 1.5875
3.42838 2.99467 1.5875
61.0027 3.83274 1.5875
5.69675 4.94396 1.5875
0.51757 5.69518 1.5875
20.9657 10.6552 1.5875
9.77614 0.482935 1.5875
19.416 11.666 1.5875
56.2713 13.6151 1.5875
73.8825 14.2928 1.5875
73.8611 4.58812 1.5875
7.01164 7.28659 1.5875
15.8466 5.39776 1.5875
75.662 4.33465 1.5875
58.0675 1.90326 1.5875
17.3802 6.65172 1.5875
75.713 10.1916 1.5875
55.24 10.6522 1.5875
73.8687 1.57991 1.5875
67.172 13.7742 1.5875
0.471486 2.65158 1.5875
57.8651 6.38105 1.5875
70.8953 6.98237 1.5875
56.2853 2.24604 1.5875
75.6928 5.69568 1.5875
0.464323 1.16933 1.5875
63.7231 1.35793 1.5875
52.9189 14.6232 1.5875
75.7381 14.7056 1.5875
0.462888 14.7046 1.5875
67.8722 5.7595 1.5875
75.7382 1.169 1.5875
5.8426 1.94884 1.5875
0.489502 10.1875 1.5875
10.9074 8.58817 1.5875
61.5331 11.9786 1.5875
62.1969 11.4898 1.5875
58.0409 13.9619 1.5875
5.59577 11.0357 1.5875
75.7293 13.2228 1.5875
70.4328 2.03059 1.5875
23.2991 14.6745 1.5875
0.469928 13.2228 1.5875
61.4348 10.3141 1.5875
5.28885 12.0836 1.5875
11.0929 13.0581 1.5875
12.3282 1.3454 1.5875
63.8588 14.5428 1.5875
4.80145 5.50229 1.5875
1.34654 1.94633 1.5875
74.8065 4.0361 1.5875
52.9076 1.20897 1.5875
20.1946 1.37804 1.5875
3.08282 12.0693 1.5875
2.37035 1.58026 1.5875
63.7708 3.17807 1.5875
15.0158 0.507638 1.5875
12.1712 13.4257 1.5875
8.68031 4.78902 1.5875
69.9259 7.17317 1.5875
16.3715 7.89542 1.5875
61.2232 15.3234 1.5875
61.1966 0.50752 1.5875
4.23604 0.468074 1.5875
7.86476 9.36172 1.5875
23.3764 13.6534 1.5875
52.0211 15.3205 1.5875
8.04317 6.69021 1.5875
55.966 1.37784 1.5875
15.2314 11.4111 1.5875
55.7964 6.14675 1.5875
10.613 14.506 1.5875
59.3644 0.518451 1.5875
2.26329 11.2685 1.5875
14.4629 2.78802 1.5875
5.78581 12.9562 1.5875
20.6791 2.54696 1.5875
62.7987 11.7721 1.5875
62.4208 13.6166 1.5875
24.1713 15.2971 1.5875
16.821 3.51907 1.5875
55.9377 14.4982 1.5875
1.13712 11.9764 1.5875
15.058 15.3897 1.5875
20.4098 6.14244 1.5875
59.3492 15.3517 1.5875
55.4497 2.61239 1.5875
74.8698 13.9316 1.5875
37.0578 2.63301 1.5875
39.1422 13.242 1.5875
39.1422 2.63301 1.5875
37.0578 13.242 1.5875
75.0873 11.975 1.5875
61.7723 2.77963 1.5875
34.7474 2.63202 1.5875
41.4526 2.63202 1.5875
41.4526 13.243 1.5875
34.7474 13.243 1.5875
32.4372 2.63231 1.5875
43.7628 13.2427 1.5875
32.4372 13.2427 1.5875
43.7628 2.63231 1.5875
70.3834 12.9605 1.5875
1.32782 13.9315 1.5875
30.1272 13.2424 1.5875
46.0728 2.6326 1.5875
30.1272 2.6326 1.5875
46.0728 13.2424 1.5875
65.3528 8.49208 1.5875
15.7853 13.8689 1.5875
27.8049 13.2473 1.5875
27.8049 2.62767 1.5875
48.3951 2.62767 1.5875
48.3951 13.2473 1.5875
74.0034 11.2714 1.5875
74.8982 1.95912 1.5875
60.2636 5.33995 1.5875
7.92046 7.60821 1.5875
17.6646 4.80478 1.5875
1.13793 0.478097 1.5875
73.1198 11.9319 1.5875
9.0843 2.08766 1.5875
5.9097 2.96587 1.5875
23.2915 1.23568 1.5875
13.2855 11.6336 1.5875
25.2044 1.11805 1.5875
20.3069 14.4924 1.5875
10.4052 4.42946 1.5875
67.5343 10.031 1.5875
16.8462 0.514463 1.5875
72.0026 0.473123 1.5875
59.3432 5.20866 1.5875
50.993 1.11796 1.5875
14.1936 1.13203 1.5875
14.2238 6.81744 1.5875
59.6406 13.0365 1.5875
64.2268 13.4659 1.5875
66.5526 3.65285 1.5875
61.6668 13.0818 1.5875
11.1422 3.55031 1.5875
58.3591 4.85189 1.5875
50.9705 14.7591 1.5875
16.8012 5.2566 1.5875
60.4077 1.96094 1.5875
63.9315 11.5135 1.5875
15.2285 4.42606 1.5875
75.7349 2.5641 1.5875
68.8035 5.59114 1.5875
8.67267 3.58621 1.5875
4.48114 10.5741 1.5875
59.6508 2.86367 1.5875
15.763 8.94859 1.5875
5.42756 3.88203 1.5875
15.8313 1.98054 1.5875
71.9287 15.4415 1.5875
25.7848 2.76997 1.5875
25.7848 13.105 1.5875
50.4152 2.76997 1.5875
50.4152 13.105 1.5875
20.0492 5.02539 1.5875
3.23077 2.00908 1.5875
62.9719 1.41623 1.5875
66.5824 5.41259 1.5875
25.2141 14.7377 1.5875
66.5871 4.56119 1.5875
56.802 12.2507 1.5875
14.3266 14.7209 1.5875
67.8109 9.03378 1.5875
56.1413 5.02761 1.5875
61.1943 12.748 1.5875
3.89504 10.5556 1.5875
65.2057 13.1189 1.5875
70.4299 6.12852 1.5875
73.5124 9.3423 1.5875
14.1301 4.22085 1.5875
67.2523 6.66478 1.5875
16.5285 13.0669 1.5875
64.9652 4.60712 1.5875
4.27451 15.4465 1.5875
19.4475 4.91528 1.5875
61.9912 14.731 1.5875
14.2899 5.40449 1.5875
61.6662 4.69946 1.5875
5.04698 6.56747 1.5875
11.4841 6.89516 1.5875
36.5583 2.7114 1.5875
36.5583 13.1636 1.5875
39.6417 13.1636 1.5875
39.6417 2.7114 1.5875
62.0013 1.12992 1.5875
56.8614 3.64092 1.5875
56.7667 4.95047 1.5875
34.2487 2.7124 1.5875
34.2487 13.1626 1.5875
41.9513 2.7124 1.5875
41.9513 13.1626 1.5875
75.0661 0.473954 1.5875
19.3867 3.65626 1.5875
64.2349 5.66863 1.5875
73.5179 5.64361 1.5875
19.414 12.2791 1.5875
70.475 9.84809 1.5875
31.9397 13.1613 1.5875
44.2603 2.71365 1.5875
31.9397 2.71365 1.5875
44.2603 13.1613 1.5875
2.51999 11.929 1.5875
16.0343 7.35094 1.5875
13.3454 9.43115 1.5875
27.1341 13.2198 1.5875
27.1341 2.65517 1.5875
49.0659 2.65517 1.5875
49.0659 13.2198 1.5875
10.163 7.76341 1.5875
14.8793 10.3188 1.5875
75.0658 15.4016 1.5875
70.2598 13.6602 1.5875
1.08681 3.80182 1.5875
29.63 13.1604 1.5875
29.63 2.71463 1.5875
46.57 2.71463 1.5875
46.57 13.1604 1.5875
59.5131 6.76686 1.5875
64.6805 4.05406 1.5875
60.1234 6.94033 1.5875
18.6378 11.4612 1.5875
60.504 8.89819 1.5875
73.0126 1.97911 1.5875
65.7124 14.483 1.5875
65.7706 1.38338 1.5875
16.6061 2.85063 1.5875
60.9933 4.47317 1.5875
2.85036 10.8855 1.5875
59.3772 3.48827 1.5875
69.1604 8.69673 1.5875
64.3669 10.9634 1.5875
73.3473 10.894 1.5875
6.50133 9.54416 1.5875
20.1628 7.71463 1.5875
73.5113 6.59634 1.5875
3.40842 13.9751 1.5875
1.13474 15.4004 1.5875
8.09542 3.88747 1.5875
72.9573 13.8559 1.5875
56.0391 7.72051 1.5875
13.2542 4.84742 1.5875
19.722 5.9499 1.5875
60.3755 12.3604 1.5875
67.2508 11.5664 1.5875
68.1915 3.99096 1.5875
57.7521 11.4931 1.5875
8.03967 11.5987 1.5875
1.04465 3.06047 1.5875
18.5831 2.86683 1.5875
73.7492 11.8915 1.5875
57.7742 4.55226 1.5875
18.2354 4.49883 1.5875
19.7212 15.4338 1.5875
16.0404 15.3726 1.5875
11.3843 5.44343 1.5875
57.5764 2.87882 1.5875
12.3934 4.85478 1.5875
8.9844 11.6395 1.5875
72.0429 11.7234 1.5875
72.352 13.7178 1.5875
12.9248 0.487377 1.5875
13.8161 12.6103 1.5875
9.59952 7.39 1.5875
56.472 5.95546 1.5875
23.3045 2.2223 1.5875
7.87564 8.24289 1.5875
68.1325 11.8374 1.5875
13.3566 1.32686 1.5875
59.51 11.6577 1.5875
5.65471 9.68963 1.5875
62.3607 10.1102 1.5875
63.1704 0.510528 1.5875
59.3982 12.2957 1.5875
16.6572 6.77428 1.5875
63.2763 15.3913 1.5875
70.329 3.02814 1.5875
75.1657 12.9195 1.5875
1.03184 12.9195 1.5875
7.30181 8.47681 1.5875
18.1176 3.8243 1.5875
70.9851 0.506712 1.5875
71.2492 5.89003 1.5875
9.92335 15.3784 1.5875
75.1397 9.84767 1.5875
50.0539 14.7463 1.5875
50.0519 1.12945 1.5875
26.1476 1.12922 1.5875
26.1475 14.7464 1.5875
1.12299 6.05368 1.5875
6.79921 13.4062 1.5875
3.86655 13.7395 1.5875
8.87709 7.68127 1.5875
74.4926 4.58291 1.5875
12.3611 11.5796 1.5875
21.8472 3.11385 1.5875
75.1481 5.98763 1.5875
66.5849 10.6113 1.5875
60.4704 10.1473 1.5875
52.8884 2.24647 1.5875
71.4269 4.42435 1.5875
4.12502 9.71158 1.5875
68.1996 6.57674 1.5875
62.8911 14.5025 1.5875
22.0723 11.8337 1.5875
1.09745 9.82683 1.5875
6.23057 8.47008 1.5875
2.68468 8.69924 0.793385
3.22871 9.1658 0.791634
2.45172 7.97868 0.793676
2.64425 7.23919 0.793673
3.20597 6.72022 0.793363
3.95582 6.58645 0.791505
4.6442 6.86479 0.780668
4.85244 8.80924 0.866186
4.22102 9.23275 0.746541
3.68885 9.29099 0.781419
5.0383 7.35622 0.7175
5.13375 7.63043 1.096
5.13085 8.25681 0.598895
5.11709 7.56586 0.311667
4.65196 9.00414 0.403182
5.11523 8.31565 1.13968
63.3762 8.00712 0.0
12.8676 8.17352 0.0
9.39227 4.93424 0.0
66.9931 4.91659 0.0
16.3308 4.79274 0.0
67.0657 11.0457 0.0
59.8563 4.81989 0.0
9.11811 11.0509 0.0
59.8272 11.091 0.0
16.506 11.1714 0.0
12.7962 11.9281 0.0
63.4251 12.0996 0.0
63.4733 3.78383 0.0
12.7941 3.72517 0.0
70.3473 3.55662 0.0
5.97438 3.53856 0.0
70.3422 12.3364 0.0
5.83313 12.3762 0.0
17.1935 7.94245 0.0
58.8906 7.97758 0.0
67.8962 7.89553 0.0
8.38874 7.96106 0.0
19.0432 3.24669 0.0
57.0939 3.13812 0.0
57.0707 12.7464 0.0
19.1046 12.7873 0.0
2.95015 3.37144 0.0
73.4283 12.5096 0.0
2.78014 12.5126 0.0
73.2994 3.40179 0.0
10.4934 13.2684 0.0
65.7702 2.5768 0.0
65.7903 13.2842 0.0
14.9916 13.308 0.0
10.4528 2.57882 0.0
61.1492 2.57118 0.0
61.1311 13.3443 0.0
15.099 2.55745 0.0
11.5939 6.08541 0.0
14.0894 6.03894 0.0
64.8058 5.9368 0.0
65.6419 9.02131 0.0
62.0072 5.89455 0.0
61.0361 9.08811 0.0
10.5804 9.09285 0.0
15.209 9.15625 0.0
6.96626 5.78894 0.0
69.2753 5.92076 0.0
8.08209 13.3958 0.0
18.5291 5.87064 0.0
69.3074 10.0751 0.0
57.6559 5.86906 0.0
57.6275 10.0289 0.0
68.214 2.43831 0.0
6.85418 10.1737 0.0
68.1755 13.4501 0.0
18.5811 10.0089 0.0
8.06733 2.3762 0.0
21.1883 2.28185 0.0
54.9835 2.27076 0.0
54.9651 13.6115 0.0
21.2778 13.6284 0.0
17.1385 13.6034 0.0
59.154 13.6091 0.0
59.1702 2.26615 0.0
17.1317 2.23805 0.0
62.9341 10.0503 0.0
4.54004 2.05777 0.0
71.7385 2.10287 0.0
71.7742 13.8332 0.0
4.41625 13.8476 0.0
2.01854 5.14148 0.0
64.9322 11.0191 0.0
74.0884 5.30113 0.0
2.05747 10.7002 0.0
13.3268 10.0596 0.0
74.2269 10.7316 0.0
12.6449 13.925 0.0
11.1552 11.1365 0.0
4.56026 4.81045 0.0
15.488 7.10818 0.0
4.32617 11.1278 0.0
60.7199 7.12301 0.0
10.1942 7.14368 0.0
71.9363 4.71087 0.0
63.9739 1.95854 0.0
63.9354 13.9569 0.0
61.5927 11.3467 0.0
1.95486 2.08366 0.0
71.8693 11.2019 0.0
66.1353 7.14786 0.0
12.2283 1.95593 0.0
74.2682 13.7887 0.0
1.92962 13.7889 0.0
74.2727 2.08776 0.0
14.6715 11.4855 0.0
22.9706 1.82615 0.0
53.233 1.8439 0.0
53.2217 13.9933 0.0
23.0506 14.0691 0.0
69.9235 1.81777 0.0
6.51528 13.9418 0.0
10.9977 4.22467 0.0
69.8484 13.9823 0.0
6.45009 1.90637 0.0
68.7253 4.22986 0.0
7.53745 4.18515 0.0
68.7675 11.5843 0.0
14.6876 4.26623 0.0
19.7967 4.63144 0.0
56.387 4.63325 0.0
56.3867 11.1705 0.0
19.8461 11.1532 0.0
19.0345 7.51329 0.0
65.1834 4.06873 0.0
57.1634 7.51274 0.0
7.42643 11.7836 0.0
61.4177 4.25516 0.0
6.75647 8.48282 0.0
59.5175 9.41046 0.0
16.7669 9.53089 0.0
16.9142 6.30644 0.0
17.8174 4.23151 0.0
59.2684 6.25777 0.0
58.2358 4.27235 0.0
58.3196 11.5982 0.0
18.0686 11.5668 0.0
51.2967 1.62628 0.0
51.2967 14.2487 0.0
24.9033 1.62628 0.0
24.9141 14.2733 0.0
19.6833 1.58684 0.0
8.45433 9.64634 0.0
56.4861 1.61586 0.0
56.4645 14.2661 0.0
8.50378 6.33793 0.0
67.2055 9.41659 0.0
19.7852 14.2826 0.0
69.3251 7.52282 0.0
67.7124 6.34496 0.0
26.4502 14.2556 0.0
49.7498 1.61938 0.0
26.4502 1.61938 0.0
49.7498 14.2556 0.0
47.3364 1.60942 0.0
47.3364 14.2656 0.0
28.8636 14.2656 0.0
28.8636 1.60942 0.0
31.1727 14.265 0.0
45.0273 1.61004 0.0
45.0273 14.265 0.0
31.1727 1.61004 0.0
33.4592 1.604 0.0
33.4592 14.271 0.0
42.7408 14.271 0.0
42.7408 1.604 0.0
40.4315 14.2708 0.0
40.4315 1.60421 0.0
35.7685 1.60421 0.0
35.7685 14.2708 0.0
38.1053 14.2218 0.0
38.1053 1.65324 0.0
13.8101 1.59675 0.0
62.4046 1.58426 0.0
62.3771 14.2012 0.0
9.39437 14.2966 0.0
66.9324 1.55514 0.0
66.8972 14.3258 0.0
1.49249 3.41622 0.0
13.8982 14.3469 0.0
12.066 9.3924 0.0
9.34061 1.52922 0.0
63.3871 6.50775 0.0
64.6459 7.42375 0.0
20.9427 12.0914 0.0
9.23801 3.37549 0.0
74.7684 12.4732 0.0
1.45968 6.53141 0.0
64.1348 9.20211 0.0
70.7464 5.6642 0.0
1.42797 12.4732 0.0
74.7743 3.40179 0.0
11.6204 7.42737 0.0
55.2585 12.0663 0.0
67.0897 3.32976 0.0
55.3378 3.77463 0.0
20.853 3.81364 0.0
70.8339 10.3065 0.0
5.41946 5.78709 0.0
1.43948 9.35508 0.0
12.8287 5.19396 0.0
67.0987 12.5855 0.0
12.8512 6.67646 0.0
16.1775 3.38996 0.0
9.1615 12.4569 0.0
15.8653 14.5539 0.0
74.7295 6.51976 0.0
62.1641 7.26464 0.0
60.0421 3.39056 0.0
74.7456 9.39178 0.0
14.0108 7.37801 0.0
60.2677 14.3248 0.0
59.9714 12.532 0.0
60.2716 1.40768 0.0
6.36623 7.09827 0.0
3.12389 1.35288 0.0
5.45505 10.2093 0.0
15.9534 1.39395 0.0
16.2587 12.5231 0.0
18.4662 14.4656 0.0
73.1284 1.34797 0.0
56.7891 8.80842 0.0
73.1911 14.4947 0.0
19.4143 8.80356 0.0
3.0616 14.4936 0.0
57.8503 14.5637 0.0
57.868 1.30734 0.0
11.2178 14.6354 0.0
63.734 5.16913 0.0
15.4671 5.84661 0.0
64.7885 12.2396 0.0
18.3239 1.2942 0.0
60.6891 5.79586 0.0
13.6058 13.122 0.0
10.2135 5.86025 0.0
4.28315 12.5426 0.0
11.4332 12.3095 0.0
66.1214 5.83264 0.0
71.9689 3.4179 0.0
60.8799 10.4546 0.0
65.1264 1.34156 0.0
65.1126 14.6207 0.0
4.36129 3.42465 0.0
10.9554 1.27575 0.0
71.9138 12.4735 0.0
15.492 10.3421 0.0
69.8385 8.79795 0.0
62.4248 12.971 0.0
62.395 2.93176 0.0
62.4238 8.78942 0.0
1.26478 7.93986 0.0
13.8338 2.90997 0.0
3.29939 5.33241 0.0
11.658 3.20532 0.0
72.8892 10.4833 0.0
66.1096 10.1856 0.0
12.3038 10.8429 0.0
68.728 1.1889 0.0
64.5207 3.07462 0.0
72.9211 5.50174 0.0
9.35802 8.77109 0.0
22.3178 2.82817 0.0
3.25952 10.4519 0.0
13.9461 8.83942 0.0
10.0272 10.2369 0.0
7.57757 14.6049 0.0
60.1531 8.30792 0.0
19.6314 6.4892 0.0
68.6947 14.622 0.0
75.0032 7.9375 0.0
53.8999 2.87888 0.0
16.0797 8.40434 0.0
65.9708 11.8069 0.0
56.5641 6.49256 0.0
69.8556 4.7347 0.0
53.8964 12.9903 0.0
7.5064 1.20731 0.0
6.37713 4.76687 0.0
69.8797 11.1958 0.0
22.3936 13.0668 0.0
68.4941 9.0178 0.0
21.9105 1.26199 0.0
63.8172 10.9222 0.0
68.0649 10.3078 0.0
54.2675 1.25927 0.0
54.2787 14.6441 0.0
66.6412 8.30565 0.0
21.9354 14.6362 0.0
19.7971 9.96463 0.0
58.0956 8.84612 0.0
6.25581 11.1792 0.0
56.3997 9.96471 0.0
6.96169 12.8823 0.0
18.1187 8.83893 0.0
69.256 3.1077 0.0
36.9425 14.7389 0.0
36.9425 1.13609 0.0
39.265 14.7429 0.0
39.265 1.13209 0.0
34.6193 14.7573 0.0
34.6193 1.11767 0.0
41.5807 14.7573 0.0
41.5807 1.11767 0.0
69.2252 12.7999 0.0
32.3082 14.7541 0.0
32.3082 1.1209 0.0
43.8918 1.1209 0.0
43.8918 14.7541 0.0
58.7528 10.4236 0.0
17.9714 12.7605 0.0
29.9982 14.7345 0.0
29.9982 1.14051 0.0
46.2018 1.14051 0.0
46.2018 14.7345 0.0
27.6826 14.7329 0.0
27.6826 1.14208 0.0
48.5174 1.14208 0.0
48.5174 14.7329 0.0
10.3186 11.8623 0.0
58.2775 12.7518 0.0
58.2827 3.11003 0.0
17.8645 3.13574 0.0
5.38453 14.6298 0.0
17.4933 10.4635 0.0
62.5809 4.55574 0.0
7.08759 3.07754 0.0
7.59321 7.07113 0.0
58.2184 6.88539 0.0
70.8362 14.6329 0.0
17.9873 6.90484 0.0
70.9337 1.08305 0.0
5.39486 1.2863 0.0
8.02077 5.26315 0.0
68.3096 5.35311 0.0
7.91373 10.6744 0.0
70.3121 6.7097 0.0
20.16 2.79212 0.0
55.9844 2.72611 0.0
20.7238 1.12534 0.0
55.9946 13.1221 0.0
55.4434 1.12692 0.0
20.2351 13.2135 0.0
55.4222 14.7474 0.0
17.5132 5.38399 0.0
23.8903 1.14296 0.0
23.9582 2.29299 0.0
75.1028 4.46991 0.0
20.827 14.7468 0.0
52.3 1.14032 0.0
52.2519 2.29964 0.0
58.6473 5.35882 0.0
1.18458 4.41309 0.0
52.2999 14.7652 0.0
52.1756 13.5716 0.0
62.7153 11.1113 0.0
14.8476 1.13367 0.0
1.12499 11.4421 0.0
5.47125 13.4456 0.0
1.08631 1.14191 0.0
61.3835 1.11883 0.0
61.8481 9.92029 0.0
24.013 13.5595 0.0
75.0844 11.4428 0.0
61.3713 14.7644 0.0
23.948 14.7498 0.0
13.5629 11.12 0.0
75.1258 14.7387 0.0
1.07232 14.7397 0.0
75.126 1.13671 0.0
66.2326 4.12422 0.0
70.7932 13.4619 0.0
5.94044 9.21726 0.0
17.2955 14.7791 0.0
70.6946 2.58664 0.0
5.54373 2.52064 0.0
13.6239 4.43956 0.0
12.0096 4.46516 0.0
59.2102 14.7863 0.0
59.2254 1.08647 0.0
73.2565 4.51587 0.0
72.7379 2.47491 0.0
3.50151 2.48855 0.0
14.9337 8.0766 0.0
72.7018 13.3631 0.0
3.41198 13.4191 0.0
63.2898 0.982928 0.0
60.9286 12.2528 0.0
14.9937 14.7545 0.0
14.4021 10.0464 0.0
12.8862 1.03115 0.0
11.5653 8.56271 0.0
63.3172 14.8457 0.0
16.9855 1.07379 0.0
64.98 9.87378 0.0
61.2852 7.98449 0.0
68.6771 6.80803 0.0
4.16151 1.04257 0.0
1.0472 5.53701 0.0
13.0371 15.0261 0.0
17.0763 12.0052 0.0
2.9865 11.4719 0.0
1.02863 10.3324 0.0
75.174 5.53708 0.0
73.4472 11.4352 0.0
2.2206 4.12496 0.0
72.163 1.06153 0.0
11.2492 9.94925 0.0
71.9405 14.8839 0.0
9.08917 7.20549 0.0
73.9238 6.1166 0.0
70.8976 4.48774 0.0
4.27653 14.8938 0.0
75.1913 10.3623 0.0
73.8282 9.77458 0.0
3.39273 4.46472 0.0
1.01283 2.45663 0.0
7.73982 8.81482 0.0
15.7293 11.766 0.0
18.8195 4.89206 0.0
36.7041 13.6897 0.0
36.7041 2.18534 0.0
39.4959 13.6897 0.0
39.4959 2.18534 0.0
59.6585 7.29024 0.0
16.5585 7.30154 0.0
12.3814 12.8638 0.0
34.3921 2.18759 0.0
34.3921 13.6874 0.0
41.8079 13.6874 0.0
41.8079 2.18759 0.0
9.8781 4.07669 0.0
32.0802 13.6853 0.0
32.0802 2.18967 0.0
44.1199 2.18967 0.0
44.1199 13.6853 0.0
71.0495 11.4344 0.0
29.7684 13.6834 0.0
46.4316 2.19158 0.0
46.4316 13.6834 0.0
29.7684 2.19158 0.0
75.2005 13.416 0.0
27.4132 13.6906 0.0
27.4132 2.18444 0.0
48.7868 2.18444 0.0
48.7868 13.6906 0.0
50.4647 13.6615 0.0
50.4647 2.21345 0.0
25.7353 2.21345 0.0
25.7353 13.6615 0.0
0.998003 13.4157 0.0
64.6923 8.45259 0.0
75.2064 2.48187 0.0
57.3623 4.89953 0.0
67.1349 7.2674 0.0
67.9616 12.6529 0.0
63.9141 12.8489 0.0
67.9854 3.24269 0.0
59.035 11.857 0.0
57.1631 10.988 0.0
50.5029 1.00795 0.0
25.6913 14.8691 0.0
50.5117 14.8705 0.0
25.6957 1.00748 0.0
56.0252 5.62949 0.0
20.1753 5.63062 0.0
10.0474 14.7468 0.0
2.35976 6.08413 0.0
12.911 2.59459 0.0
71.7527 5.72967 0.0
59.0804 4.03391 0.0
18.5713 2.27647 0.0
2.34329 9.78673 0.0
5.2678 4.41277 0.0
15.6991 4.08598 0.0
71.7135 10.1868 0.0
4.17469 10.15 0.0
63.3271 2.64025 0.0
5.15837 11.5215 0.0
18.979 10.8952 0.0
11.5503 13.4922 0.0
2.32483 0.984467 0.0
67.776 1.00101 0.0
8.5227 12.0028 0.0
14.5071 12.3062 0.0
4.204 5.69852 0.0
57.6453 2.27976 0.0
19.9985 3.61388 0.0
8.48715 1.00135 0.0
73.9266 0.975715 0.0
16.3597 2.27433 0.0
56.1523 3.68449 0.0
73.9213 14.914 0.0
8.55066 14.7753 0.0
10.6256 8.07511 0.0
65.4068 5.19539 0.0
57.5755 13.4831 0.0
2.26801 14.9063 0.0
67.7291 14.8792 0.0
56.37 12.1613 0.0
14.8074 6.63253 0.0
17.0516 4.1803 0.0
61.3679 6.55269 0.0
65.8929 7.91563 0.0
2.25827 2.77806 0.0
66.3262 1.104 0.0
59.9876 2.3458 0.0
10.889 6.68533 0.0
66.2329 14.8037 0.0
11.8065 0.930577 0.0
8.16659 3.22268 0.0
19.8578 12.1729 0.0
18.9118 13.6909 0.0
59.9497 13.63 0.0
65.4046 6.64608 0.0
12.8176 9.05986 0.0
64.3974 0.936747 0.0
73.9195 13.108 0.0
20.7609 11.2679 0.0
2.24568 13.1023 0.0
64.7963 13.5076 0.0
73.9904 2.78069 0.0
60.4229 4.11586 0.0
55.4449 11.2534 0.0
64.3799 14.9411 0.0
55.3929 4.62888 0.0
20.8023 4.63842 0.0
14.8745 5.07791 0.0
68.7485 8.21084 0.0
60.8094 11.3172 0.0
21.7937 12.3772 0.0
16.3198 13.5848 0.0
9.56064 2.45632 0.0
10.8282 5.14115 0.0
64.1689 4.37514 0.0
10.0028 1.07036 0.0
69.5971 0.893476 0.0
3.67423 11.7893 0.0
11.3785 2.33718 0.0
8.56569 4.20331 0.0
62.2681 12.1875 0.0
69.487 15.1344 0.0
21.7942 3.72608 0.0
72.522 11.9057 0.0
22.9504 0.633118 0.0
66.6991 2.46172 0.0
70.6154 9.3307 0.0
53.2438 0.634775 0.0
53.2936 15.2324 0.0
52.9062 13.1315 0.0
54.3521 3.69894 0.0
22.9109 15.2334 0.0
52.916 2.90235 0.0
18.9984 12.0686 0.0
54.3623 12.1871 0.0
23.2501 2.83357 0.0
6.67146 0.775873 0.0
6.59431 15.1588 0.0
66.6785 13.4088 0.0
11.9195 15.1006 0.0
61.389 5.18422 0.0
9.322 5.8766 0.0
19.1555 14.9795 0.0
56.5243 8.03039 0.0
19.6758 8.02414 0.0
9.62046 13.4091 0.0
57.0958 0.877632 0.0
57.0739 14.9946 0.0
63.2677 8.87258 0.0
23.3107 13.0107 0.0
63.056 13.6541 0.0
9.15468 10.1434 0.0
72.6398 3.99926 0.0
19.0818 0.871305 0.0
64.8606 2.24618 0.0
61.6269 3.35841 0.0
74.2647 4.00836 0.0
57.3092 11.8758 0.0
14.5887 3.44043 0.0
67.6044 4.46868 0.0
70.2159 7.96354 0.0
57.3784 3.99481 0.0
60.3828 9.5906 0.0
62.9472 5.73007 0.0
69.0948 2.27314 0.0
57.9461 7.98805 0.0
67.677 11.4152 0.0
18.2503 7.98789 0.0
67.0435 5.78917 0.0
16.3502 5.70087 0.0
7.21549 4.93173 0.0
18.777 3.97708 0.0
6.78919 3.95018 0.0
6.61913 11.9247 0.0
0.817914 7.20756 0.0
68.8329 10.7786 0.0
0.811851 8.66935 0.0
10.5322 3.56064 0.0
13.6444 12.0675 0.0
15.8548 9.59459 0.0
7.25252 2.15579 0.0
69.0106 13.6982 0.0
17.5978 9.62093 0.0
75.3956 8.67537 0.0
74.4082 8.5579 0.0
1.77601 11.7518 0.0
63.8058 10.0477 0.0
7.34527 13.8446 0.0
58.6548 9.58425 0.0
11.7266 11.5129 0.0
63.9281 7.18333 0.0
5.97211 7.841 0.0
60.0365 6.3083 0.0
74.495 11.7551 0.0
75.3901 7.20879 0.0
65.7392 3.57787 0.0
9.9719 11.0435 0.0
47.9011 2.27949 0.0
47.9011 13.5955 0.0
28.2989 2.27949 0.0
28.2989 13.5955 0.0
45.5839 2.28047 0.0
45.5839 13.5945 0.0
30.6161 2.28047 0.0
30.6161 13.5945 0.0
32.9223 2.27881 0.0
43.2777 13.5962 0.0
32.9223 13.5962 0.0
43.2777 2.27881 0.0
16.0998 6.58345 0.0
18.0346 13.5765 0.0
40.9676 13.5969 0.0
40.9676 2.27812 0.0
35.2324 2.27812 0.0
35.2324 13.5969 0.0
6.97846 11.1663 0.0
9.52784 8.02775 0.0
7.42729 7.78708 0.0
38.6572 13.5718 0.0
38.6572 2.30316 0.0
37.5428 13.5718 0.0
37.5428 2.30316 0.0
5.62344 6.62367 0.0
74.4052 7.30049 0.0
7.06955 9.29486 0.0
59.7865 5.64145 0.0
7.9369 12.497 0.0
39.9839 0.79745 0.0
39.9839 15.0775 0.0
36.2169 0.797859 0.0
36.2169 15.0771 0.0
33.8995 15.0787 0.0
33.8995 0.796276 0.0
42.3005 0.796276 0.0
42.3005 15.0787 0.0
62.9568 7.23012 0.0
17.2651 8.82758 0.0
69.5422 3.89659 0.0
10.0995 4.96746 0.0
37.7018 15.0661 0.0
37.7018 0.808867 0.0
16.407 10.3146 0.0
58.8898 8.79699 0.0
31.5604 15.0714 0.0
31.5604 0.803596 0.0
44.6396 0.803596 0.0
44.6396 15.0714 0.0
57.3884 6.7207 0.0
59.8591 10.2433 0.0
19.3241 5.55815 0.0
29.2215 15.084 0.0
29.2215 0.790981 0.0
46.9785 0.790981 0.0
46.9785 15.084 0.0
18.8114 6.72621 0.0
69.5283 11.9884 0.0
62.489 8.02707 0.0
26.8811 15.0466 0.0
26.8811 0.828438 0.0
49.3189 0.828438 0.0
49.3189 15.0466 0.0
12.4211 5.97462 0.0
56.8672 5.56748 0.0
54.0989 13.8588 0.0
62.0111 10.6781 0.0
69.0895 5.07871 0.0
12.4421 7.39139 0.0
54.1077 2.01418 0.0
64.5191 11.5778 0.0
12.0688 6.74173 0.0
62.423 3.73783 0.0
20.3982 10.5164 0.0
22.0796 2.00715 0.0
13.3341 13.7594 0.0
73.5704 2.08811 0.0
5.16506 3.2809 0.0
2.74517 13.7435 0.0
15.5256 4.90543 0.0
73.5896 13.7875 0.0
58.8976 12.9111 0.0
13.6198 6.70707 0.0
66.23 5.02999 0.0
15.3643 12.5123 0.0
13.2604 7.40262 0.0
55.8188 10.5188 0.0
2.67004 2.0764 0.0
24.5629 0.822225 0.0
51.2584 2.45505 0.0
51.2584 13.4199 0.0
24.9416 2.45505 0.0
24.9416 13.4199 0.0
13.2472 5.97115 0.0
58.9029 2.97605 0.0
7.54129 6.27266 0.0
56.2265 0.813263 0.0
66.6171 6.5359 0.0
17.1132 12.8032 0.0
66.354 9.40207 0.0
51.6324 0.822283 0.0
60.7402 3.30188 0.0
64.5722 5.13664 0.0
22.1458 13.8685 0.0
66.9448 10.2188 0.0
51.5141 15.0591 0.0
66.1639 1.84183 0.0
66.2193 10.9952 0.0
56.3764 7.23323 0.0
61.7141 12.5342 0.0
6.37638 2.59124 0.0
56.2005 15.0635 0.0
19.8222 7.23057 0.0
71.1092 12.6553 0.0
10.1354 1.80105 0.0
64.1848 6.37502 0.0
24.6703 14.9114 0.0
66.117 14.0257 0.0
16.6806 15.1605 0.0
60.6025 4.92768 0.0
13.6236 8.05473 0.0
69.8035 13.2779 0.0
56.136 9.23212 0.0
20.0655 9.23225 0.0
62.5725 6.49463 0.0
5.07192 12.7146 0.0
9.68015 6.65866 0.0
67.3674 8.58454 0.0
10.187 13.9983 0.0
63.1362 1.98306 0.0
69.9469 2.58544 0.0
61.918 2.25717 0.0
14.33 2.24422 0.0
9.82935 9.43378 0.0
62.5474 0.76136 0.0
20.4113 2.00726 0.0
19.3863 2.46236 0.0
49.6159 2.42461 0.0
26.5841 13.4504 0.0
26.5841 2.42461 0.0
49.6159 13.4504 0.0
13.6797 0.772383 0.0
15.4768 3.28631 0.0
19.96 0.792727 0.0
61.8251 13.6399 0.0
56.9698 2.42963 0.0
14.1705 13.6056 0.0
55.708 1.95533 0.0
56.8386 13.5095 0.0
1.73371 8.59157 0.0
71.1932 3.71716 0.0
55.6634 13.9158 0.0
20.0744 15.0059 0.0
66.2642 12.5854 0.0
62.5321 15.1131 0.0
17.2361 2.97113 0.0
69.4918 6.71107 0.0
7.70749 9.99475 0.0
45.5428 15.0563 0.0
45.5428 0.818732 0.0
30.6572 0.818732 0.0
30.6572 15.0563 0.0
20.5412 13.9343 0.0
1.71586 7.31339 0.0
14.2937 10.7597 0.0
13.0506 1.90718 0.0
58.4462 6.0444 0.0
43.2226 15.0616 0.0
43.2226 0.813405 0.0
32.9774 0.813405 0.0
32.9774 15.0616 0.0
13.6409 5.23662 0.0
2.60518 4.73355 0.0
8.60586 14.0211 0.0
9.57765 11.7828 0.0
58.5933 15.1402 0.0
12.6874 9.95213 0.0
58.605 0.731692 0.0
40.9023 0.812546 0.0
40.9023 15.0625 0.0
35.2978 15.0624 0.0
35.2978 0.812604 0.0
17.7353 6.0636 0.0
8.47571 8.80934 0.0
12.0138 5.25538 0.0
63.9312 8.4678 0.0
38.5839 15.0523 0.0
38.5839 0.822666 0.0
6.29585 6.07987 0.0
67.7028 1.80871 0.0
6.26349 13.2884 0.0
12.2694 8.6333 0.0
67.6642 14.0747 0.0
13.7366 15.0687 0.0
17.5963 0.722318 0.0
5.15894 9.43401 0.0
15.2343 14.1386 0.0
63.2215 12.8934 0.0
28.3331 0.8177 0.0
28.3331 15.0573 0.0
47.8669 0.8177 0.0
47.8669 15.0573 0.0
13.8338 3.69171 0.0
69.9796 5.54071 0.0
70.0292 10.3695 0.0
17.3782 11.2652 0.0
0.534083 3.38784 0.0
8.8467 13.2243 0.0
66.7637 11.786 0.0
3.5161 0.663675 0.0
72.5941 15.1588 0.0
3.61532 15.1632 0.0
54.8906 12.8387 0.0
67.9479 7.09553 0.0
54.8548 2.96985 0.0
6.95473 6.57581 0.0
21.2532 3.0176 0.0
61.084 1.67373 0.0
61.0429 14.1255 0.0
60.1218 11.8164 0.0
67.4762 2.60363 0.0
9.47087 15.0944 0.0
69.2143 9.3149 0.0
0.671118 6.38914 0.0
8.59242 1.78502 0.0
10.0046 12.5908 0.0
67.448 13.2875 0.0
15.1824 1.702 0.0
21.2834 12.8583 0.0
16.6719 14.2507 0.0
67.0133 0.730688 0.0
5.11727 5.06832 0.0
75.4319 3.79915 0.0
0.648481 9.48256 0.0
68.4609 6.05844 0.0
75.5351 12.4732 0.0
0.647108 1.84982 0.0
8.77282 2.70351 0.0
0.663962 12.4732 0.0
75.5578 14.026 0.0
75.5579 1.847 0.0
0.641601 14.0261 0.0
71.5099 11.9013 0.0
66.9778 15.1249 0.0
72.7148 0.63628 0.0
64.4806 10.4241 0.0
8.37473 7.17237 0.0
63.714 5.87516 0.0
54.8218 0.669387 0.0
75.5394 6.39924 0.0
58.9973 11.1556 0.0
9.22309 0.765346 0.0
70.975 6.38625 0.0
66.3158 3.13465 0.0
54.8129 15.1926 0.0
21.3532 0.69386 0.0
71.3806 2.80049 0.0
58.1023 10.8003 0.0
21.4565 11.6376 0.0
17.2942 7.20976 0.0
69.8945 9.60166 0.0
6.14019 10.0022 0.0
60.7154 0.821596 0.0
5.03134 10.8437 0.0
70.4125 15.2304 0.0
60.6753 15.11 0.0
15.5055 0.805515 0.0
56.9441 9.58039 0.0
75.5433 9.46915 0.0
70.3703 0.660107 0.0
65.2236 11.6912 0.0
9.92145 3.18491 0.0
5.82142 15.2142 0.0
4.7779 6.08051 0.0
19.2616 9.57062 0.0
17.9263 15.0527 0.0
21.383 15.1586 0.0
21.4058 4.37724 0.0
71.3134 5.15062 0.0
59.0552 4.6829 0.0
10.7419 12.4942 0.0
15.5218 15.1667 0.0
58.691 14.2377 0.0
66.9613 4.11695 0.0
57.3328 8.38154 0.0
58.7081 1.63668 0.0
18.8711 8.37737 0.0
61.6505 8.48922 0.0
71.361 10.7728 0.0
40.1687 13.4891 0.0
36.0313 2.38591 0.0
40.1687 2.38591 0.0
36.0313 13.4891 0.0
11.2728 9.22546 0.0
59.9213 0.767369 0.0
59.9273 15.0841 0.0
33.7216 2.387 0.0
33.7216 13.488 0.0
42.4784 13.488 0.0
42.4784 2.387 0.0
54.793 4.33029 0.0
44.7843 2.38905 0.0
44.7843 13.4859 0.0
31.4157 2.38905 0.0
31.4157 13.4859 0.0
47.0949 13.4853 0.0
29.1051 2.38969 0.0
47.0949 2.38969 0.0
29.1051 13.4853 0.0
3.08455 9.75714 0.0
58.9715 7.26069 0.0
18.9464 1.75696 0.0
18.1576 10.8232 0.0
54.7983 11.5658 0.0
11.9316 10.1508 0.0
12.1027 2.62578 0.0
12.8084 4.4178 0.0
6.71675 7.90064 0.0
5.88853 0.669643 0.0
16.2856 0.764421 0.0
64.9318 9.17734 0.0
17.4553 1.48575 0.0
17.0783 4.82322 0.0
72.6873 4.82573 0.0
3.09157 6.0479 0.0
65.4244 12.5447 0.0
4.80984 3.96751 0.0
63.3101 4.49749 0.0
11.0028 11.7478 0.0
57.319 1.72676 0.0
56.9443 10.2589 0.0
74.6048 5.78638 0.0
68.5859 7.52784 0.0
10.8828 7.41993 0.0
57.2538 14.1564 0.0
13.0581 12.5642 0.0
11.2745 15.2465 0.0
59.6525 1.66164 0.0
15.755 10.9986 0.0
14.793 7.39114 0.0
59.5741 14.1909 0.0
60.471 12.9355 0.0
11.209 0.600327 0.0
64.9803 15.2959 0.0
74.5206 10.1372 0.0
72.4472 9.99741 0.0
10.1376 8.53803 0.0
11.5538 3.93179 0.0
64.9892 0.633156 0.0
3.8916 1.86769 0.0
13.0468 10.6715 0.0
5.61188 7.3249 0.0
1.69446 5.7937 0.0
4.60623 11.9319 0.0
16.3926 11.8664 0.0
3.45323 12.6436 0.0
16.5706 1.59674 0.0
61.4527 7.3156 0.0
1.69349 10.1324 0.0
16.3688 8.9733 0.0
67.9314 9.59643 0.0
9.07292 9.39937 0.0
72.4222 6.00767 0.0
3.91539 14.3709 0.0
72.3382 14.2968 0.0
60.0013 8.99097 0.0
71.2055 9.66474 0.0
62.1987 5.08123 0.0
72.3757 1.85939 0.0
4.08259 13.2214 0.0
18.4772 13.0012 0.0
3.65236 3.6302 0.0
8.67554 5.50984 0.0
0.64408 4.96218 0.0
2.2223 9.04918 0.0
68.6239 9.8303 0.0
4.77495 2.69305 0.0
19.2327 10.2588 0.0
5.65225 8.5475 0.0
72.6839 11.2707 0.0
72.6268 3.16965 0.0
71.0541 1.88578 0.0
0.643669 10.9259 0.0
14.6855 8.6567 0.0
18.2007 5.25248 0.0
1.68251 0.6615 0.0
3.62035 11.0745 0.0
74.1172 12.4464 0.0
19.645 13.5733 0.0
8.40526 11.1848 0.0
75.5796 4.96968 0.0
2.0941 12.4508 0.0
2.20047 6.80171 0.0
75.5734 10.9379 0.0
5.18035 1.9419 0.0
65.399 7.38285 0.0
22.2636 0.648915 0.0
14.4014 0.599004 0.0
75.4749 3.12039 0.0
21.2592 1.58186 0.0
61.7966 15.2804 0.0
61.0907 9.81008 0.0
74.0456 3.43203 0.0
72.7371 12.6464 0.0
11.8346 14.1272 0.0
4.86858 0.688479 0.0
64.1829 3.65783 0.0
61.8086 0.597173 0.0
10.9529 13.8486 0.0
58.335 13.4085 0.0
72.0846 13.217 0.0
57.7954 15.2338 0.0
54.894 1.55688 0.0
57.8104 0.63662 0.0
58.3607 2.43548 0.0
14.4501 15.2774 0.0
7.32076 15.2072 0.0
67.7009 5.17038 0.0
15.4183 8.51202 0.0
60.8596 8.42655 0.0
57.9675 5.25627 0.0
18.3867 12.2151 0.0
54.8771 14.3212 0.0
14.215 4.77375 0.0
12.0193 7.99353 0.0
10.8862 6.02183 0.0
14.7861 5.95035 0.0
53.9248 0.643375 0.0
64.1386 12.1503 0.0
67.1295 7.94439 0.0
71.0858 14.007 0.0
4.89896 15.2148 0.0
71.4855 0.741293 0.0
65.4791 6.00935 0.0
66.0151 6.51353 0.0
62.4967 9.53263 0.0
21.3641 14.3132 0.0
61.3341 5.91005 0.0
74.5302 0.639612 0.0
54.0254 15.2421 0.0
18.3804 0.625474 0.0
71.7942 4.05533 0.0
13.9037 9.57482 0.0
74.5291 15.2381 0.0
0.57891 7.93835 0.0
17.9138 2.56397 0.0
2.98122 2.65725 0.0
12.1797 12.2107 0.0
63.3222 11.3679 0.0
61.3472 10.8289 0.0
65.6164 9.67417 0.0
2.87756 15.2626 0.0
17.6363 14.1825 0.0
65.4239 10.4793 0.0
5.09584 13.983 0.0
2.57136 5.47619 0.0
15.0793 9.79253 0.0
1.66819 15.2376 0.0
68.8133 15.3032 0.0
10.3279 6.51248 0.0
71.3362 15.2151 0.0
15.422 6.52002 0.0
68.8198 0.555189 0.0
69.4787 8.22025 0.0
65.3339 13.8827 0.0
64.5188 14.1308 0.0
6.07814 5.41828 0.0
73.6446 10.3658 0.0
10.5608 9.74597 0.0
68.1803 11.0199 0.0
65.176 2.99113 0.0
17.5478 3.69738 0.0
13.5871 2.25054 0.0
70.4944 5.03386 0.0
73.2113 9.85948 0.0
10.7433 10.5977 0.0
22.1798 15.2398 0.0
2.13594 3.47467 0.0
8.46129 10.3655 0.0
73.3327 15.2635 0.0
70.5486 10.9481 0.0
1.93033 7.95235 0.0
7.39359 0.513074 0.0
57.8664 12.2029 0.0
65.7396 4.51121 0.0
63.1928 10.6715 0.0
64.502 1.57459 0.0
55.914 6.70616 0.0
9.15822 4.11693 0.0
20.286 6.7041 0.0
12.4872 3.21085 0.0
14.944 10.8469 0.0
73.3085 2.7026 0.0
60.34 10.6745 0.0
22.5681 12.3766 0.0
16.7111 8.39137 0.0
73.4875 5.1117 0.0
23.6921 14.1216 0.0
68.7119 12.3335 0.0
68.7313 3.55539 0.0
19.4716 4.28746 0.0
8.96582 8.22414 0.0
59.5287 7.91086 0.0
11.445 4.75376 0.0
22.6023 3.4163 0.0
60.1517 7.56124 0.0
14.5535 14.1866 0.0
58.5696 3.6466 0.0
12.8448 11.293 0.0
11.5987 1.61419 0.0
16.3845 4.06306 0.0
15.8129 13.1539 0.0
57.6997 3.41252 0.0
69.9073 6.20774 0.0
70.5355 8.67863 0.0
73.2959 13.1788 0.0
55.4795 5.36603 0.0
2.56076 10.3661 0.0
63.0201 3.31085 0.0
15.0573 11.9583 0.0
64.1006 2.60106 0.0
73.201 6.10745 0.0
71.4145 13.277 0.0
15.6534 7.86611 0.0
63.3691 9.55236 0.0
75.6493 7.93844 0.0
0.574924 4.14674 0.0
51.9571 14.1986 0.0
37.3596 14.2453 0.0
37.3596 1.62968 0.0
38.8769 14.2491 0.0
38.8769 1.62591 0.0
53.5459 3.45176 0.0
51.957 1.67529 0.0
24.243 1.67357 0.0
3.8659 4.88872 0.0
60.7085 6.44837 0.0
0.59609 11.7091 0.0
59.7233 4.10035 0.0
74.0351 9.14611 0.0
2.86405 13.1142 0.0
35.0117 14.2568 0.0
35.0117 1.61825 0.0
41.1883 1.61824 0.0
41.1883 14.2568 0.0
13.2035 3.33741 0.0
74.0003 6.77826 0.0
57.4646 9.18918 0.0
20.7204 5.36888 0.0
53.5576 12.4375 0.0
32.7019 14.2557 0.0
32.7019 1.61926 0.0
43.4981 1.61926 0.0
43.4981 14.2557 0.0
8.59967 12.6059 0.0
64.2474 7.87426 0.0
75.6088 11.7121 0.0
30.3945 14.2524 0.0
30.3945 1.62258 0.0
45.8055 1.62258 0.0
45.8055 14.2524 0.0
18.4636 3.40527 0.0
73.3454 0.591992 0.0
5.76368 14.0823 0.0
28.0797 14.2528 0.0
48.1203 1.6222 0.0
48.1203 14.2528 0.0
28.0797 1.6222 0.0
64.9021 3.56146 0.0
18.7483 9.17907 0.0
4.73683 13.2925 0.0
2.86965 4.0467 0.0
25.2686 0.536771 0.0
68.3648 1.7935 0.0
48.5969 0.538379 0.0
48.5969 15.3366 0.0
27.6031 0.538379 0.0
27.6031 15.3366 0.0
11.0087 3.00293 0.0
70.2938 4.22935 0.0
70.4774 7.34791 0.0
11.5632 10.7131 0.0
72.1381 2.63754 0.0
50.9251 0.534996 0.0
66.5927 7.70265 0.0
46.2643 0.534237 0.0
46.2643 15.3408 0.0
29.9357 15.3408 0.0
29.9357 0.534237 0.0
2.88153 0.600205 0.0
12.8568 13.2718 0.0
20.4351 9.86125 0.0
38.1011 13.3531 0.0
38.1011 2.52191 0.0
4.73874 1.43186 0.0
50.9211 15.3403 0.0
5.97002 10.5988 0.0
72.265 5.32983 0.0
22.5149 1.36308 0.0
10.8057 1.94914 0.0
43.9316 15.3447 0.0
43.9316 0.530336 0.0
32.2684 0.530336 0.0
32.2684 15.3447 0.0
56.7055 4.30278 0.0
7.98116 1.70513 0.0
55.7669 9.85648 0.0
68.2548 14.1448 0.0
71.5679 1.43918 0.0
20.0979 8.44419 0.0
8.03229 14.1283 0.0
70.3764 11.6646 0.0
1.6 2.74204 0.0
41.599 0.526678 0.0
41.599 15.3483 0.0
34.601 15.3483 0.0
34.601 0.526678 0.0
69.249 1.59393 0.0
1.65834 3.9676 0.0
69.2733 11.2613 0.0
6.93169 14.4911 0.0
8.06288 4.59212 0.0
62.9542 5.00673 0.0
65.5095 1.91868 0.0
25.2884 15.3408 0.0
53.6066 1.28127 0.0
20.1896 4.34399 0.0
7.56726 3.53537 0.0
56.1021 8.44679 0.0
39.2663 0.523266 0.0
39.2663 15.3517 0.0
36.9337 15.3517 0.0
36.9337 0.523266 0.0
62.6152 2.27907 0.0
53.4697 2.38878 0.0
55.9933 4.35066 0.0
53.6471 14.5239 0.0
23.6156 1.78034 0.0
5.92069 4.21041 0.0
65.7267 0.71084 0.0
8.06467 15.282 0.0
22.7283 2.37846 0.0
0.588195 0.587074 0.0
39.7488 1.58416 0.0
36.4354 14.3041 0.0
39.7488 14.2908 0.0
36.4354 1.57091 0.0
17.0497 5.7359 0.0
60.4248 2.71516 0.0
34.1255 1.57352 0.0
34.1255 14.3015 0.0
42.0745 1.57352 0.0
42.0745 14.3015 0.0
4.69406 9.99842 0.0
15.1167 3.82692 0.0
61.7278 14.2925 0.0
69.3671 14.4191 0.0
31.8306 14.2871 0.0
31.8306 1.58793 0.0
44.3694 1.58793 0.0
44.3694 14.2871 0.0
1.40308 5.07038 0.0
53.4909 13.4726 0.0
67.497 12.0187 0.0
55.9798 11.7197 0.0
46.675 1.59486 0.0
46.675 14.2801 0.0
29.525 14.2801 0.0
29.525 1.59486 0.0
75.607 15.2814 0.0
67.5248 10.6157 0.0
61.7678 1.55598 0.0
0.600522 15.2749 0.0
75.6071 0.593453 0.0
27.1961 14.295 0.0
27.1961 1.58005 0.0
49.0039 14.295 0.0
49.0039 1.58005 0.0
9.56454 10.6222 0.0
19.1493 14.3409 0.0
68.6489 2.92353 0.0
61.7112 9.24791 0.0
70.3246 1.32307 0.0
66.1131 8.67817 0.0
26.1207 15.2821 0.0
26.1194 0.593304 0.0
50.0804 15.2821 0.0
50.0799 0.593193 0.0
21.7307 2.64877 0.0
70.8129 3.1463 0.0
55.5949 15.365 0.0
5.78531 11.7109 0.0
22.5929 14.6046 0.0
1.50559 10.9326 0.0
19.0729 6.14939 0.0
22.8154 13.5061 0.0
56.695 11.6902 0.0
68.5998 12.9754 0.0
57.8228 7.35838 0.0
68.056 8.55356 0.0
65.7 15.1873 0.0
58.6112 12.2593 0.0
13.3277 8.68699 0.0
6.8691 1.44355 0.0
66.7804 8.918 0.0
74.6239 13.1413 0.0
55.5949 0.506578 0.0
23.6 15.2686 0.0
74.3914 7.94404 0.0
52.5715 1.79768 0.0
20.679 15.338 0.0
58.0043 9.50474 0.0
25.5915 1.59751 0.0
50.6087 14.2767 0.0
50.6078 1.5983 0.0
25.5941 14.2789 0.0
21.7719 13.2469 0.0
14.5376 9.34436 0.0
23.7077 0.556198 0.0
1.5711 13.141 0.0
59.2502 10.0646 0.0
52.6303 15.2696 0.0
74.8321 5.09387 0.0
70.4813 14.2035 0.0
54.4118 2.52149 0.0
52.4908 0.555903 0.0
74.6695 2.76367 0.0
18.3755 7.36968 0.0
63.4199 14.1706 0.0
64.6415 12.8556 0.0
14.463 1.56159 0.0
57.1187 6.15212 0.0
20.2369 11.6908 0.0
58.2612 10.0889 0.0
7.68806 2.88138 0.0
20.6051 0.501779 0.0
6.18118 1.34545 0.0
54.4445 13.3336 0.0
59.1092 5.69574 0.0
65.554 11.1983 0.0
71.6432 6.34494 0.0
67.5751 3.82667 0.0
17.7215 12.1614 0.0
57.7817 12.9155 0.0
16.9909 10.1083 0.0
52.563 14.0662 0.0
72.1953 10.6149 0.0
7.28761 12.3954 0.0
10.5461 0.569491 0.0
7.48159 13.0634 0.0
59.338 10.6183 0.0
61.8083 7.8162 0.0
6.44227 12.5667 0.0
18.5878 15.2503 0.0
7.96414 0.555158 0.0
11.259 7.9895 0.0
74.7551 10.9211 0.0
18.2433 9.47508 0.0
4.10706 4.19771 0.0
20.4537 12.5758 0.0
64.3868 9.78338 0.0
62.0357 4.27493 0.0
56.8731 6.98981 0.0
68.2774 4.71267 0.0
16.9352 10.6896 0.0
59.5322 8.57967 0.0
11.759 12.874 0.0
19.6774 10.5612 0.0
4.05667 2.82592 0.0
69.3031 4.48496 0.0
69.8432 3.26568 0.0
14.3275 8.03169 0.0
20.6522 3.13033 0.0
17.9753 10.1294 0.0
19.3249 6.98982 0.0
58.4411 8.34062 0.0
70.8775 11.9984 0.0
56.451 10.5682 0.0
1.75426 14.4779 0.0
55.7639 12.546 0.0
68.2617 15.3109 0.0
24.1815 2.86208 0.0
74.4423 14.4789 0.0
14.0368 11.5527 0.0
56.4545 12.8173 0.0
63.6284 13.461 0.0
55.7176 3.1399 0.0
74.4452 1.40002 0.0
15.9107 2.71125 0.0
8.85312 15.3755 0.0
17.756 8.34624 0.0
69.8069 12.6402 0.0
9.76379 5.44567 0.0
12.3991 0.633352 0.0
56.4378 3.00075 0.0
6.16849 14.5863 0.0
1.77816 1.4039 0.0
62.0015 6.67999 0.0
19.6431 3.15619 0.0
12.212 3.86473 0.0
52.0173 2.86714 0.0
6.5373 3.36668 0.0
66.4055 0.509106 0.0
17.8017 7.57704 0.0
55.4089 13.1891 0.0
10.6597 15.3007 0.0
63.8071 0.624466 0.0
19.7881 12.7638 0.0
58.386 7.61416 0.0
71.5453 14.4141 0.0
24.3301 14.118 0.0
52.0165 13.0046 0.0
17.5644 13.1859 0.0
64.7557 6.79867 0.0
62.6376 10.5181 0.0
63.7915 15.2474 0.0
6.50227 9.0328 0.0
62.9132 8.42387 0.0
7.56124 5.64425 0.0
8.11423 5.88282 0.0
10.6384 11.2776 0.0
62.8646 12.3766 0.0
65.0446 7.91057 0.0
6.66266 5.26706 0.0
12.5151 14.5948 0.0
3.69799 6.05467 0.0
68.279 0.549021 0.0
6.5375 10.6848 0.0
1.82963 4.57481 0.0
66.4419 15.38 0.0
14.265 12.9917 0.0
60.7466 7.73512 0.0
60.5679 13.6033 0.0
69.4645 10.7361 0.0
13.756 10.372 0.0
7.26543 10.6464 0.0
4.68688 14.4962 0.0
18.081 1.88912 0.0
9.11685 13.7378 0.0
7.63706 11.1801 0.0
58.8013 6.63518 0.0
73.5801 3.97811 0.0
24.187 12.9901 0.0
62.9615 3.97715 0.0
20.8052 13.2408 0.0
3.68381 9.9663 0.0
9.03022 6.61399 0.0
13.3059 3.90757 0.0
12.5349 15.2806 0.0
13.2455 14.4054 0.0
2.35173 14.282 0.0
70.0752 14.6246 0.0
67.2026 2.1073 0.0
17.3784 15.3485 0.0
18.3299 6.39019 0.0
3.42838 2.99467 0.0
61.0027 3.83274 0.0
5.69675 4.94396 0.0
0.51757 5.69518 0.0
20.9657 10.6552 0.0
9.77614 0.482935 0.0
19.416 11.666 0.0
56.2713 13.6151 0.0
73.8825 14.2928 0.0
73.8611 4.58812 0.0
7.01164 7.28659 0.0
15.8466 5.39776 0.0
75.662 4.33465 0.0
58.0675 1.90326 0.0
17.3802 6.65172 0.0
75.713 10.1916 0.0
55.24 10.6522 0.0
73.8687 1.57991 0.0
67.172 13.7742 0.0
0.471486 2.65158 0.0
57.8651 6.38105 0.0
70.8953 6.98237 0.0
56.2853 2.24604 0.0
75.6928 5.69568 0.0
0.464323 1.16933 0.0
63.7231 1.35793 0.0
52.9189 14.6232 0.0
75.7381 14.7056 0.0
0.462888 14.7046 0.0
67.8722 5.7595 0.0
75.7382 1.169 0.0
5.8426 1.94884 0.0
0.489502 10.1875 0.0
10.9074 8.58817 0.0
61.5331 11.9786 0.0
62.1969 11.4898 0.0
58.0409 13.9619 0.0
5.59577 11.0357 0.0
75.7293 13.2228 0.0
70.4328 2.03059 0.0
23.2991 14.6745 0.0
0.469928 13.2228 0.0
61.4348 10.3141 0.0
5.28885 12.0836 0.0
11.0929 13.0581 0.0
12.3282 1.3454 0.0
63.8588 14.5428 0.0
4.80145 5.50229 0.0
1.34654 1.94633 0.0
74.8065 4.0361 0.0
52.9076 1.20897 0.0
20.1946 1.37804 0.0
3.08282 12.0693 0.0
2.37035 1.58026 0.0
63.7708 3.17807 0.0
15.0158 0.507638 0.0
12.1712 13.4257 0.0
8.68031 4.78902 0.0
69.9259 7.17317 0.0
16.3715 7.89542 0.0
61.2232 15.3234 0.0
61.1966 0.50752 0.0
4.23604 0.468074 0.0
7.86476 9.36172 0.0
23.3764 13.6534 0.0
52.0211 15.3205 0.0
8.04317 6.69021 0.0
55.966 1.37784 0.0
15.2314 11.4111 0.0
55.7964 6.14675 0.0
10.613 14.506 0.0
59.3644 0.518451 0.0
2.26329 11.2685 0.0
14.4629 2.78802 0.0
5.78581 12.9562 0.0
20.6791 2.54696 0.0
62.7987 11.7721 0.0
62.4208 13.6166 0.0
24.1713 15.2971 0.0
16.821 3.51907 0.0
55.9377 14.4982 0.0
1.13712 11.9764 0.0
15.058 15.3897 0.0
20.4098 6.14244 0.0
59.3492 15.3517 0.0
55.4497 2.61239 0.0
74.8698 13.9316 0.0
37.0578 2.63301 0.0
39.1422 13.242 0.0
37.0578 13.242 0.0
39.1422 2.63301 0.0
75.0873 11.975 0.0
61.7723 2.77963 0.0
34.7474 2.63202 0.0
41.4526 2.63202 0.0
41.4526 13.243 0.0
34.7474 13.243 0.0
32.4372 2.63231 0.0
43.7628 13.2427 0.0
32.4372 13.2427 0.0
43.7628 2.63231 0.0
70.3834 12.9605 0.0
1.32782 13.9315 0.0
30.1272 13.2424 0.0
46.0728 2.6326 0.0
30.1272 2.6326 0.0
46.0728 13.2424 0.0
65.3528 8.49208 0.0
15.7853 13.8689 0.0
27.8049 13.2473 0.0
27.8049 2.62767 0.0
48.3951 2.62767 0.0
48.3951 13.2473 0.0
74.0034 11.2714 0.0
74.8982 1.95912 0.0
60.2636 5.33995 0.0
7.92046 7.60821 0.0
17.6646 4.80478 0.0
1.13793 0.478097 0.0
73.1198 11.9319 0.0
9.0843 2.08766 0.0
5.9097 2.96587 0.0
23.2915 1.23568 0.0
13.2855 11.6336 0.0
25.2044 1.11805 0.0
20.3069 14.4924 0.0
10.4052 4.42946 0.0
67.5343 10.031 0.0
16.8462 0.514463 0.0
72.0026 0.473123 0.0
59.3432 5.20866 0.0
50.993 1.11796 0.0
14.1936 1.13203 0.0
14.2238 6.81744 0.0
59.6406 13.0365 0.0
64.2268 13.4659 0.0
66.5526 3.65285 0.0
61.6668 13.0818 0.0
11.1422 3.55031 0.0
58.3591 4.85189 0.0
50.9705 14.7591 0.0
16.8012 5.2566 0.0
60.4077 1.96094 0.0
63.9315 11.5135 0.0
15.2285 4.42606 0.0
75.7349 2.5641 0.0
68.8035 5.59114 0.0
8.67267 3.58621 0.0
4.48114 10.5741 0.0
59.6508 2.86367 0.0
15.763 8.94859 0.0
5.42756 3.88203 0.0
15.8313 1.98054 0.0
71.9287 15.4415 0.0
25.7848 13.105 0.0
50.4152 2.76997 0.0
50.4152 13.105 0.0
25.7848 2.76997 0.0
20.0492 5.02539 0.0
3.23077 2.00908 0.0
62.9719 1.41623 0.0
66.5824 5.41259 0.0
25.2141 14.7377 0.0
66.5871 4.56119 0.0
56.802 12.2507 0.0
14.3266 14.7209 0.0
67.8109 9.03378 0.0
56.1413 5.02761 0.0
61.1943 12.748 0.0
3.89504 10.5556 0.0
65.2057 13.1189 0.0
70.4299 6.12852 0.0
73.5124 9.3423 0.0
14.1301 4.22085 0.0
67.2523 6.66478 0.0
16.5285 13.0669 0.0
64.9652 4.60712 0.0
4.27451 15.4465 0.0
19.4475 4.91528 0.0
61.9912 14.731 0.0
14.2899 5.40449 0.0
61.6662 4.69946 0.0
5.04698 6.56747 0.0
11.4841 6.89516 0.0
36.5583 2.7114 0.0
36.5583 13.1636 0.0
39.6417 13.1636 0.0
39.6417 2.7114 0.0
62.0013 1.12992 0.0
56.8614 3.64092 0.0
56.7667 4.95047 0.0
34.2487 2.7124 0.0
34.2487 13.1626 0.0
41.9513 2.7124 0.0
41.9513 13.1626 0.0
75.0661 0.473954 0.0
19.3867 3.65626 0.0
64.2349 5.66863 0.0
73.5179 5.64361 0.0
19.414 12.2791 0.0
70.475 9.84809 0.0
31.9397 13.1613 0.0
44.2603 2.71365 0.0
31.9397 2.71365 0.0
44.2603 13.1613 0.0
2.51999 11.929 0.0
16.0343 7.35094 0.0
13.3454 9.43115 0.0
27.1341 13.2198 0.0
27.1341 2.65517 0.0
49.0659 2.65517 0.0
49.0659 13.2198 0.0
10.163 7.76341 0.0
14.8793 10.3188 0.0
75.0658 15.4016 0.0
70.2598 13.6602 0.0
1.08681 3.80182 0.0
29.63 13.1604 0.0
29.63 2.71463 0.0
46.57 2.71463 0.0
46.57 13.1604 0.0
59.5131 6.76686 0.0
64.6805 4.05406 0.0
60.1234 6.94033 0.0
18.6378 11.4612 0.0
60.504 8.89819 0.0
73.0126 1.97911 0.0
65.7124 14.483 0.0
65.7706 1.38338 0.0
16.6061 2.85063 0.0
60.9933 4.47317 0.0
2.85036 10.8855 0.0
59.3772 3.48827 0.0
69.1604 8.69673 0.0
64.3669 10.9634 0.0
73.3473 10.894 0.0
6.50133 9.54416 0.0
20.1628 7.71463 0.0
73.5113 6.59634 0.0
3.40842 13.9751 0.0
1.13474 15.4004 0.0
8.09542 3.88747 0.0
72.9573 13.8559 0.0
56.0391 7.72051 0.0
13.2542 4.84742 0.0
19.722 5.9499 0.0
60.3755 12.3604 0.0
67.2508 11.5664 0.0
68.1915 3.99096 0.0
57.7521 11.4931 0.0
8.03967 11.5987 0.0
1.04465 3.06047 0.0
18.5831 2.86683 0.0
73.7492 11.8915 0.0
57.7742 4.55226 0.0
18.2354 4.49883 0.0
19.7212 15.4338 0.0
16.0404 15.3726 0.0
11.3843 5.44343 0.0
57.5764 2.87882 0.0
12.3934 4.85478 0.0
8.9844 11.6395 0.0
72.0429 11.7234 0.0
72.352 13.7178 0.0
12.9248 0.487377 0.0
13.8161 12.6103 0.0
9.59952 7.39 0.0
56.472 5.95546 0.0
23.3045 2.2223 0.0
7.87564 8.24289 0.0
68.1325 11.8374 0.0
13.3566 1.32686 0.0
59.51 11.6577 0.0
5.65471 9.68963 0.0
62.3607 10.1102 0.0
63.1704 0.510528 0.0
59.3982 12.2957 0.0
16.6572 6.77428 0.0
63.2763 15.3913 0.0
70.329 3.02814 0.0
75.1657 12.9195 0.0
1.03184 12.9195 0.0
7.30181 8.47681 0.0
18.1176 3.8243 0.0
70.9851 0.506712 0.0
71.2492 5.89003 0.0
9.92335 15.3784 0.0
75.1397 9.84767 0.0
50.0539 14.7463 0.0
50.0519 1.12945 0.0
26.1475 14.7464 0.0
26.1476 1.12922 0.0
1.12299 6.05368 0.0
6.79921 13.4062 0.0
3.86655 13.7395 0.0
8.87709 7.68127 0.0
74.4926 4.58291 0.0
12.3611 11.5796 0.0
21.8472 3.11385 0.0
75.1481 5.98763 0.0
66.5849 10.6113 0.0
60.4704 10.1473 0.0
52.8884 2.24647 0.0
71.4269 4.42435 0.0
4.12502 9.71158 0.0
68.1996 6.57674 0.0
62.8911 14.5025 0.0
22.0723 11.8337 0.0
1.09745 9.82683 0.0
6.23057 8.47008 0.0
0.748903 15.875 0.79375
75.4511 15.875 0.79375
71.1459 15.875 0.79375
55.5949 15.875 0.79375
66.4806 15.875 0.79375
68.0357 15.875 0.79375
73.4786 15.875 0.79375
39.2789 15.875 0.812291
47.8194 15.875 0.79375
44.7092 15.875 0.79375
51.6945 15.875 0.775209
25.2704 15.875 0.79375
30.7133 15.875 0.79375
46.2643 15.875 0.79375
26.8192 15.875 0.79066
32.2684 15.875 0.79375
36.1435 15.875 0.775209
37.7112 15.875 0.79375
41.6053 15.875 0.79684
58.7051 15.875 0.79375
60.2602 15.875 0.79375
29.1455 15.875 0.812291
19.05 15.875 0.79375
4.26391 15.875 0.812291
17.4949 15.875 0.79375
20.6177 15.875 0.812291
57.15 15.875 0.79375
22.9567 15.875 0.815381
1.88226 15.875 0.791599
5.83163 15.875 0.79375
8.94184 15.875 0.79375
12.8296 15.875 0.79375
33.8235 15.875 0.79375
49.3682 15.875 0.79684
53.2749 15.875 0.775209
61.8153 15.875 0.79375
63.3704 15.875 0.79375
64.9255 15.875 0.79375
69.5908 15.875 0.79375
15.9398 15.875 0.79375
43.1541 15.875 0.79375
7.38673 15.875 0.79375
11.2619 15.875 0.775209
14.3847 15.875 0.79375
21.3911 15.875 0.818471
3.49057 15.875 0.818471
40.0523 15.875 0.818471
50.9212 15.875 0.812291
72.6947 15.875 0.815381
54.0482 15.875 0.812291
74.3394 15.875 0.780764
10.4885 15.875 0.812291
28.3722 15.875 0.775209
23.7248 15.875 0.818986
35.3702 15.875 0.812291
70.3684 15.875 0.79375
62.5929 15.875 0.79375
13.6071 15.875 0.79375
18.2724 15.875 0.79375
68.8133 15.875 0.79375
57.9276 15.875 0.79375
26.0469 15.875 0.793235
56.3724 15.875 0.79375
67.2582 15.875 0.79375
48.5959 15.875 0.794265
33.0459 15.875 0.79375
6.60918 15.875 0.79375
31.4908 15.875 0.79375
36.9316 15.875 0.79066
45.4867 15.875 0.79375
42.3776 15.875 0.794265
38.4909 15.875 0.79684
59.4827 15.875 0.79375
47.0418 15.875 0.79375
29.9336 15.875 0.79684
43.9316 15.875 0.79375
5.05198 15.875 0.79684
65.7031 15.875 0.79375
52.4847 15.875 0.78757
16.7173 15.875 0.79375
61.0378 15.875 0.79375
12.0499 15.875 0.79066
64.148 15.875 0.79375
19.8297 15.875 0.79684
8.16429 15.875 0.79375
15.1622 15.875 0.79375
54.8187 15.875 0.79684
50.1496 15.875 0.797355
22.1648 15.875 0.801475
71.9224 15.875 0.797355
27.6006 15.875 0.790145
9.71799 15.875 0.79684
40.8239 15.875 0.798385
2.70976 15.875 0.797512
24.4944 15.875 0.797956
34.5996 15.875 0.79684
1.3167 15.875 1.00557
74.9113 15.875 1.03457
0.386911 15.875 0.281802
0.386911 15.875 1.3057
75.8131 15.875 1.3057
75.8131 15.875 0.281802
74.9616 15.875 0.505572
1.2561 15.875 0.518184
0.0 0.748393 0.79375
0.0 15.1266 0.79375
0.0 13.9538 0.74378
0.0 2.74114 0.83434
0.0 6.42559 0.79375
0.0 10.1101 0.75316
0.0 4.15219 0.798064
0.0 8.699 0.727032
0.0 12.4788 0.727032
0.0 5.55531 0.758091
0.0 7.29589 0.758091
0.0 1.80106 0.79375
0.0 11.062 0.752292
0.0 3.41974 0.567435
0.0 9.43145 1.00759
0.0 13.224 1.00571
0.0 7.96148 1.01124
0.0 11.7385 1.01008
0.0 4.88971 1.02545
0.0 14.6215 1.02761
0.0 1.27472 1.05156
0.0 15.497 1.32292
0.0 0.377976 0.264583
0.0 0.377976 1.32292
0.0 15.497 0.264583
0.0 1.22234 0.502333
0.0 14.648 0.498742
0.0 4.89314 0.481971
0.0 7.95218 0.448737
0.0 11.7303 0.448027
0.0 3.41717 1.11205
0.0 13.226 0.440166
0.0 9.43841 0.441315
26.1487 12.7 0.79375
50.0513 12.7 0.79375
41.0746 12.7 0.815736
37.3169 12.7 0.813248
42.7316 12.7 0.774252
38.8831 12.7 0.813248
27.2769 12.7 0.779686
29.5291 12.7 0.849161
33.4684 12.7 0.774252
44.9231 12.7 0.771764
48.9231 12.7 0.779686
31.2769 12.7 0.771764
35.1254 12.7 0.738339
46.6709 12.7 0.771764
39.757 12.7 0.835234
43.6055 12.7 0.752266
47.9971 12.7 0.753042
36.443 12.7 0.757837
32.5945 12.7 0.752266
28.2029 12.7 0.830439
45.797 12.7 0.786421
38.1 12.7 0.800249
41.9333 12.7 0.794165
34.2667 12.7 0.781265
30.403 12.7 0.799321
44.2603 12.7 1.01708
35.7882 12.7 1.01151
28.8646 12.7 0.576145
31.9397 12.7 1.01708
40.4118 12.7 0.570419
47.3354 12.7 1.01724
26.7078 12.7 1.00958
49.4922 12.7 1.00958
50.4165 12.7 0.281802
25.7835 12.7 0.281802
25.7835 12.7 1.3057
50.4165 12.7 1.3057
26.6485 12.7 0.516603
49.5515 12.7 0.516603
47.3356 12.7 0.473542
40.4114 12.7 1.11409
35.7893 12.7 0.445132
28.8642 12.7 1.14246
31.9401 12.7 0.473409
44.2599 12.7 0.473409
24.4414 12.6025 0.721182
23.6843 12.3802 0.840291
22.9285 12.0085 0.801735
22.3096 11.5611 0.79512
21.7789 11.0309 0.793985
21.3394 10.426 0.79379
21.0 9.76005 0.793757
20.7691 9.04929 0.793751
20.6522 8.31116 0.79375
20.6522 7.56384 0.79375
20.7691 6.82572 0.79375
21.0 6.11497 0.79375
21.3393 5.4491 0.793752
21.7786 4.84452 0.793761
22.3069 4.31616 0.793816
22.9109 3.87723 0.794135
23.573 3.53937 0.795995
24.261 3.31321 0.806832
24.8637 3.2053 0.87
25.0458 12.6868 0.988578
25.143 3.18194 0.4915
25.0789 3.18584 1.27583
24.1728 12.5392 1.18412
24.987 12.6821 0.447785
50.0513 3.175 0.79375
26.1487 3.175 0.79375
34.2515 3.175 0.79375
32.7121 3.175 0.79375
35.8043 3.175 0.813248
31.1727 3.175 0.79375
48.9313 3.175 0.795877
41.9485 3.175 0.79375
39.7436 3.175 0.849161
29.6333 3.175 0.79375
28.0805 3.175 0.813248
47.3364 3.175 0.79375
45.797 3.175 0.79375
44.1534 3.175 0.771764
37.9958 3.175 0.771764
36.6782 3.175 0.757837
42.8339 3.175 0.755051
41.0631 3.175 0.832449
27.2421 3.175 0.807266
28.8614 3.175 0.797
31.9424 3.175 0.79375
38.8697 3.175 0.799321
33.4818 3.175 0.79375
46.5667 3.175 0.79375
35.0234 3.175 0.797
48.1153 3.175 0.794105
45.0099 3.175 0.790086
30.403 3.175 0.79375
43.4902 3.175 1.01764
37.333 3.175 1.0182
40.4068 3.175 0.576546
49.4926 3.175 0.577301
26.6775 3.175 0.547081
50.4165 3.175 0.281802
25.7835 3.175 1.3057
25.7835 3.175 0.281802
50.4165 3.175 1.3057
26.6283 3.175 1.08886
49.5532 3.175 1.06839
40.4077 3.175 1.14271
37.3326 3.175 0.474364
43.4898 3.175 0.473887
51.7586 3.27248 0.866318
52.5157 3.49477 0.747209
53.2715 3.86652 0.785765
53.8904 4.31387 0.79238
54.4211 4.84406 0.793515
54.8606 5.44902 0.79371
55.2 6.11495 0.793743
55.4309 6.82571 0.793749
55.5478 7.56384 0.79375
55.5478 8.31116 0.79375
55.4309 9.04928 0.79375
55.2 9.76003 0.79375
54.8607 10.4259 0.793752
54.4214 11.0305 0.793761
53.8931 11.5588 0.793816
53.2891 11.9978 0.794135
52.627 12.3356 0.795995
51.939 12.5618 0.806832
51.3363 12.6697 0.87
51.1542 3.18819 0.598922
51.057 12.6931 0.4915
51.1211 12.6892 1.27583
52.0272 3.33582 0.403382
51.213 3.19295 1.13971
0.748903 0.0 0.79375
75.4511 0.0 0.79375
67.2582 0.0 0.79375
71.1333 0.0 0.775209
74.3139 0.0 0.820495
55.5949 0.0 0.79375
31.4908 0.0 0.79375
47.0292 0.0 0.812291
44.7092 0.0 0.79375
51.7071 0.0 0.79375
59.4827 0.0 0.79375
40.0439 0.0 0.79375
25.2704 0.0 0.79375
68.8133 0.0 0.79375
38.4762 0.0 0.775209
26.8255 0.0 0.79375
36.1498 0.0 0.79684
41.599 0.0 0.79375
29.9357 0.0 0.79375
33.0459 0.0 0.79375
54.0272 0.0 0.812291
4.26391 0.0 0.812291
19.05 0.0 0.79375
17.4949 0.0 0.79375
20.6177 0.0 0.812291
22.9567 0.0 0.815381
1.88226 0.0 0.791599
5.83163 0.0 0.79375
8.94184 0.0 0.79375
12.8296 0.0 0.79375
15.9398 0.0 0.79375
34.601 0.0 0.79375
48.5969 0.0 0.79375
50.152 0.0 0.79375
57.1626 0.0 0.812291
61.0378 0.0 0.79375
62.5929 0.0 0.79375
64.148 0.0 0.79375
65.7031 0.0 0.79375
72.701 0.0 0.79375
28.3806 0.0 0.79375
43.1541 0.0 0.79375
7.38673 0.0 0.79375
11.2619 0.0 0.775209
14.3847 0.0 0.79375
70.36 0.0 0.812291
21.3911 0.0 0.818471
3.49057 0.0 0.818471
37.7028 0.0 0.812291
46.2559 0.0 0.775209
57.936 0.0 0.818471
10.4885 0.0 0.812291
53.2538 0.0 0.818471
23.7248 0.0 0.818986
73.4882 0.0 0.798208
13.6071 0.0 0.79375
18.2724 0.0 0.79375
61.8153 0.0 0.79375
26.048 0.0 0.79375
50.9296 0.0 0.79375
68.0357 0.0 0.79375
66.4806 0.0 0.79375
56.3746 0.0 0.79684
39.2642 0.0 0.79066
6.60918 0.0 0.79375
32.2684 0.0 0.79375
40.8214 0.0 0.79375
49.3745 0.0 0.79375
42.3765 0.0 0.79375
30.7133 0.0 0.79375
29.1582 0.0 0.79375
47.8173 0.0 0.79684
35.3775 0.0 0.794265
63.3704 0.0 0.79375
43.9316 0.0 0.79375
33.8235 0.0 0.79375
64.9255 0.0 0.79375
27.6031 0.0 0.79375
5.05198 0.0 0.79684
54.8152 0.0 0.79684
60.2602 0.0 0.79375
16.7173 0.0 0.79375
12.0499 0.0 0.79066
19.8297 0.0 0.79684
8.16429 0.0 0.79375
15.1622 0.0 0.79375
71.9214 0.0 0.79066
69.5894 0.0 0.79684
45.4853 0.0 0.79066
58.7065 0.0 0.79787
22.1648 0.0 0.801475
36.9312 0.0 0.797355
9.71799 0.0 0.79684
2.70976 0.0 0.797512
24.4944 0.0 0.797956
52.4833 0.0 0.79787
1.3167 0.0 1.00557
74.8949 0.0 0.578767
0.386911 0.0 1.3057
75.8131 0.0 1.3057
75.8131 0.0 0.281802
0.386911 0.0 0.281802
1.2561 0.0 0.518184
74.9454 0.0 1.0736
76.2 15.1266 0.79375
76.2 0.748393 0.79375
76.2 13.9667 0.805713
76.2 8.78876 0.75316
76.2 11.622 0.75316
76.2 5.00899 0.75316
76.2 6.42004 0.789436
76.2 10.2054 0.722718
76.2 2.73479 0.758091
76.2 7.83678 0.823611
76.2 12.5739 0.823611
76.2 4.05701 0.752292
76.2 1.80106 0.79375
76.2 9.46847 1.00672
76.2 10.9422 1.00672
76.2 5.68759 1.02006
76.2 7.16029 0.56089
76.2 3.39943 1.01629
76.2 13.2456 0.564146
76.2 14.5559 1.00884
76.2 1.27472 0.535943
76.2 0.377976 1.32292
76.2 0.377976 0.264583
76.2 15.497 0.264583
76.2 15.497 1.32292
76.2 1.22234 1.08517
76.2 14.6263 0.52166
76.2 13.2393 1.13135
76.2 7.16333 1.10453
76.2 3.40035 0.45183
76.2 9.46107 0.440786
76.2 5.68503 0.475446
76.2 10.9496 0.440786
72.6441 9.31521 0.791469
73.2665 9.01875 0.780661
71.2408 8.70557 0.793732
71.7655 9.18716 0.793648
71.0311 7.98028 0.793744
71.2408 7.25498 0.793732
71.7655 6.77339 0.793648
73.2665 6.94181 0.780661
72.6441 6.64534 0.791469
73.6369 8.52054 0.717499
72.1953 9.32516 0.793154
72.1953 6.63539 0.793154
73.6369 7.44001 0.717499
73.7229 8.24494 1.096
73.7229 7.71561 1.096
73.7083 7.65064 0.311666
73.7083 8.30991 0.311666
